---
source: src/net/messages.rs
expression: "(extra, result)"
---
(
    [
        11,
        99,
        109,
        100,
        32,
        98,
        97,
        115,
        101,
        108,
        105,
        110,
        101,
        115,
        32,
        50,
        50,
        52,
        50,
        57,
        32,
        53,
        50,
        10,
        0,
    ],
    [
        EntityState {
            number: 19,
            model_indices: [
                0,
                0,
                0,
                0,
            ],
            frame: 0,
            skinnum: 0,
            renderfx: 0,
            origin: Vec3(
                244.0,
                36.0,
                332.0,
            ),
            angle: Vec3(
                0.0,
                0.0,
                0.0,
            ),
            old_origin: Vec3(
                244.0,
                36.0,
                332.0,
            ),
        },
        EntityState {
            number: 20,
            model_indices: [
                0,
                0,
                0,
                0,
            ],
            frame: 0,
            skinnum: 0,
            renderfx: 0,
            origin: Vec3(
                940.0,
                628.0,
                420.0,
            ),
            angle: Vec3(
                0.0,
                0.0,
                0.0,
            ),
            old_origin: Vec3(
                940.0,
                628.0,
                420.0,
            ),
        },
        EntityState {
            number: 21,
            model_indices: [
                0,
                0,
                0,
                0,
            ],
            frame: 0,
            skinnum: 0,
            renderfx: 0,
            origin: Vec3(
                908.0,
                820.0,
                420.0,
            ),
            angle: Vec3(
                0.0,
                0.0,
                0.0,
            ),
            old_origin: Vec3(
                908.0,
                820.0,
                420.0,
            ),
        },
        EntityState {
            number: 22,
            model_indices: [
                0,
                0,
                0,
                0,
            ],
            frame: 0,
            skinnum: 0,
            renderfx: 0,
            origin: Vec3(
                244.0,
                -396.0,
                524.0,
            ),
            angle: Vec3(
                0.0,
                0.0,
                0.0,
            ),
            old_origin: Vec3(
                244.0,
                -396.0,
                524.0,
            ),
        },
        EntityState {
            number: 23,
            model_indices: [
                0,
                0,
                0,
                0,
            ],
            frame: 0,
            skinnum: 0,
            renderfx: 0,
            origin: Vec3(
                1284.0,
                628.0,
                420.0,
            ),
            angle: Vec3(
                0.0,
                0.0,
                0.0,
            ),
            old_origin: Vec3(
                1284.0,
                628.0,
                420.0,
            ),
        },
        EntityState {
            number: 24,
            model_indices: [
                0,
                0,
                0,
                0,
            ],
            frame: 0,
            skinnum: 0,
            renderfx: 0,
            origin: Vec3(
                1596.0,
                980.0,
                1132.0,
            ),
            angle: Vec3(
                0.0,
                0.0,
                0.0,
            ),
            old_origin: Vec3(
                1596.0,
                980.0,
                1132.0,
            ),
        },
        EntityState {
            number: 25,
            model_indices: [
                0,
                0,
                0,
                0,
            ],
            frame: 0,
            skinnum: 0,
            renderfx: 0,
            origin: Vec3(
                388.0,
                580.0,
                756.0,
            ),
            angle: Vec3(
                0.0,
                0.0,
                0.0,
            ),
            old_origin: Vec3(
                388.0,
                580.0,
                756.0,
            ),
        },
        EntityState {
            number: 26,
            model_indices: [
                23,
                0,
                0,
                0,
            ],
            frame: 0,
            skinnum: 0,
            renderfx: 512,
            origin: Vec3(
                1192.0,
                -24.0,
                911.0,
            ),
            angle: Vec3(
                0.0,
                0.0,
                0.0,
            ),
            old_origin: Vec3(
                1192.0,
                -24.0,
                911.0,
            ),
        },
        EntityState {
            number: 27,
            model_indices: [
                23,
                0,
                0,
                0,
            ],
            frame: 0,
            skinnum: 0,
            renderfx: 512,
            origin: Vec3(
                1232.0,
                -24.0,
                911.0,
            ),
            angle: Vec3(
                0.0,
                0.0,
                0.0,
            ),
            old_origin: Vec3(
                1232.0,
                -24.0,
                911.0,
            ),
        },
        EntityState {
            number: 28,
            model_indices: [
                24,
                0,
                0,
                0,
            ],
            frame: 0,
            skinnum: 0,
            renderfx: 512,
            origin: Vec3(
                1504.0,
                104.0,
                655.0,
            ),
            angle: Vec3(
                0.0,
                0.0,
                0.0,
            ),
            old_origin: Vec3(
                1504.0,
                104.0,
                655.0,
            ),
        },
        EntityState {
            number: 29,
            model_indices: [
                24,
                0,
                0,
                0,
            ],
            frame: 0,
            skinnum: 0,
            renderfx: 512,
            origin: Vec3(
                1448.0,
                160.0,
                655.0,
            ),
            angle: Vec3(
                0.0,
                0.0,
                0.0,
            ),
            old_origin: Vec3(
                1448.0,
                160.0,
                655.0,
            ),
        },
        EntityState {
            number: 30,
            model_indices: [
                23,
                0,
                0,
                0,
            ],
            frame: 0,
            skinnum: 0,
            renderfx: 512,
            origin: Vec3(
                1960.0,
                40.0,
                655.0,
            ),
            angle: Vec3(
                0.0,
                0.0,
                0.0,
            ),
            old_origin: Vec3(
                1960.0,
                40.0,
                655.0,
            ),
        },
        EntityState {
            number: 31,
            model_indices: [
                23,
                0,
                0,
                0,
            ],
            frame: 0,
            skinnum: 0,
            renderfx: 512,
            origin: Vec3(
                1960.0,
                -16.0,
                655.0,
            ),
            angle: Vec3(
                0.0,
                0.0,
                0.0,
            ),
            old_origin: Vec3(
                1960.0,
                -16.0,
                655.0,
            ),
        },
        EntityState {
            number: 32,
            model_indices: [
                25,
                0,
                0,
                0,
            ],
            frame: 0,
            skinnum: 0,
            renderfx: 512,
            origin: Vec3(
                1960.0,
                160.0,
                655.0,
            ),
            angle: Vec3(
                0.0,
                0.0,
                0.0,
            ),
            old_origin: Vec3(
                1960.0,
                160.0,
                655.0,
            ),
        },
        EntityState {
            number: 33,
            model_indices: [
                26,
                0,
                0,
                0,
            ],
            frame: 0,
            skinnum: 0,
            renderfx: 512,
            origin: Vec3(
                1672.0,
                488.0,
                527.0,
            ),
            angle: Vec3(
                0.0,
                0.0,
                0.0,
            ),
            old_origin: Vec3(
                1672.0,
                488.0,
                527.0,
            ),
        },
        EntityState {
            number: 34,
            model_indices: [
                26,
                0,
                0,
                0,
            ],
            frame: 0,
            skinnum: 0,
            renderfx: 512,
            origin: Vec3(
                1720.0,
                488.0,
                527.0,
            ),
            angle: Vec3(
                0.0,
                0.0,
                0.0,
            ),
            old_origin: Vec3(
                1720.0,
                488.0,
                527.0,
            ),
        },
        EntityState {
            number: 35,
            model_indices: [
                28,
                0,
                0,
                0,
            ],
            frame: 0,
            skinnum: 0,
            renderfx: 512,
            origin: Vec3(
                1072.0,
                1280.0,
                911.0,
            ),
            angle: Vec3(
                0.0,
                0.0,
                0.0,
            ),
            old_origin: Vec3(
                1072.0,
                1280.0,
                911.0,
            ),
        },
        EntityState {
            number: 36,
            model_indices: [
                29,
                0,
                0,
                0,
            ],
            frame: 0,
            skinnum: 0,
            renderfx: 512,
            origin: Vec3(
                704.0,
                104.0,
                911.0,
            ),
            angle: Vec3(
                0.0,
                0.0,
                0.0,
            ),
            old_origin: Vec3(
                704.0,
                104.0,
                911.0,
            ),
        },
        EntityState {
            number: 37,
            model_indices: [
                34,
                0,
                0,
                0,
            ],
            frame: 0,
            skinnum: 0,
            renderfx: 512,
            origin: Vec3(
                1504.0,
                992.0,
                911.0,
            ),
            angle: Vec3(
                0.0,
                0.0,
                0.0,
            ),
            old_origin: Vec3(
                1504.0,
                992.0,
                911.0,
            ),
        },
        EntityState {
            number: 38,
            model_indices: [
                35,
                0,
                0,
                0,
            ],
            frame: 0,
            skinnum: 0,
            renderfx: 512,
            origin: Vec3(
                1472.0,
                1104.0,
                911.0,
            ),
            angle: Vec3(
                0.0,
                0.0,
                0.0,
            ),
            old_origin: Vec3(
                1472.0,
                1104.0,
                911.0,
            ),
        },
        EntityState {
            number: 39,
            model_indices: [
                37,
                0,
                0,
                0,
            ],
            frame: 0,
            skinnum: 0,
            renderfx: 0,
            origin: Vec3(
                544.0,
                352.0,
                482.0,
            ),
            angle: Vec3(
                0.0,
                0.0,
                0.0,
            ),
            old_origin: Vec3(
                544.0,
                352.0,
                482.0,
            ),
        },
        EntityState {
            number: 40,
            model_indices: [
                37,
                0,
                0,
                0,
            ],
            frame: 0,
            skinnum: 0,
            renderfx: 0,
            origin: Vec3(
                1552.0,
                600.0,
                352.0,
            ),
            angle: Vec3(
                0.0,
                135.0,
                0.0,
            ),
            old_origin: Vec3(
                1552.0,
                600.0,
                352.0,
            ),
        },
        EntityState {
            number: 41,
            model_indices: [
                37,
                0,
                0,
                0,
            ],
            frame: 0,
            skinnum: 0,
            renderfx: 0,
            origin: Vec3(
                1888.0,
                736.0,
                536.0,
            ),
            angle: Vec3(
                0.0,
                180.0,
                0.0,
            ),
            old_origin: Vec3(
                1888.0,
                736.0,
                536.0,
            ),
        },
        EntityState {
            number: 42,
            model_indices: [
                37,
                0,
                0,
                0,
            ],
            frame: 0,
            skinnum: 0,
            renderfx: 0,
            origin: Vec3(
                -80.0,
                800.0,
                472.0,
            ),
            angle: Vec3(
                0.0,
                0.0,
                0.0,
            ),
            old_origin: Vec3(
                -80.0,
                800.0,
                472.0,
            ),
        },
        EntityState {
            number: 43,
            model_indices: [
                37,
                0,
                0,
                0,
            ],
            frame: 0,
            skinnum: 0,
            renderfx: 0,
            origin: Vec3(
                1488.0,
                -48.0,
                664.0,
            ),
            angle: Vec3(
                0.0,
                135.0,
                0.0,
            ),
            old_origin: Vec3(
                1488.0,
                -48.0,
                664.0,
            ),
        },
        EntityState {
            number: 44,
            model_indices: [
                37,
                0,
                0,
                0,
            ],
            frame: 0,
            skinnum: 0,
            renderfx: 0,
            origin: Vec3(
                1888.0,
                464.0,
                920.0,
            ),
            angle: Vec3(
                0.0,
                270.0,
                0.0,
            ),
            old_origin: Vec3(
                1888.0,
                464.0,
                920.0,
            ),
        },
        EntityState {
            number: 45,
            model_indices: [
                37,
                0,
                0,
                0,
            ],
            frame: 0,
            skinnum: 0,
            renderfx: 0,
            origin: Vec3(
                2016.0,
                -224.0,
                664.0,
            ),
            angle: Vec3(
                0.0,
                90.0,
                0.0,
            ),
            old_origin: Vec3(
                2016.0,
                -224.0,
                664.0,
            ),
        },
        EntityState {
            number: 46,
            model_indices: [
                37,
                0,
                0,
                0,
            ],
            frame: 0,
            skinnum: 0,
            renderfx: 0,
            origin: Vec3(
                1512.0,
                -24.0,
                536.0,
            ),
            angle: Vec3(
                0.0,
                90.0,
                0.0,
            ),
            old_origin: Vec3(
                1512.0,
                -24.0,
                536.0,
            ),
        },
        EntityState {
            number: 47,
            model_indices: [
                38,
                0,
                0,
                0,
            ],
            frame: 0,
            skinnum: 0,
            renderfx: 512,
            origin: Vec3(
                1688.0,
                96.0,
                527.0,
            ),
            angle: Vec3(
                0.0,
                0.0,
                0.0,
            ),
            old_origin: Vec3(
                1688.0,
                96.0,
                527.0,
            ),
        },
        EntityState {
            number: 48,
            model_indices: [
                40,
                0,
                0,
                0,
            ],
            frame: 0,
            skinnum: 0,
            renderfx: 512,
            origin: Vec3(
                1512.0,
                136.0,
                527.0,
            ),
            angle: Vec3(
                0.0,
                0.0,
                0.0,
            ),
            old_origin: Vec3(
                1512.0,
                136.0,
                527.0,
            ),
        },
        EntityState {
            number: 49,
            model_indices: [
                40,
                0,
                0,
                0,
            ],
            frame: 0,
            skinnum: 0,
            renderfx: 512,
            origin: Vec3(
                1512.0,
                88.0,
                527.0,
            ),
            angle: Vec3(
                0.0,
                0.0,
                0.0,
            ),
            old_origin: Vec3(
                1512.0,
                88.0,
                527.0,
            ),
        },
        EntityState {
            number: 50,
            model_indices: [
                40,
                0,
                0,
                0,
            ],
            frame: 0,
            skinnum: 0,
            renderfx: 512,
            origin: Vec3(
                1280.0,
                600.0,
                343.0,
            ),
            angle: Vec3(
                0.0,
                0.0,
                0.0,
            ),
            old_origin: Vec3(
                1280.0,
                600.0,
                343.0,
            ),
        },
        EntityState {
            number: 51,
            model_indices: [
                40,
                0,
                0,
                0,
            ],
            frame: 0,
            skinnum: 0,
            renderfx: 512,
            origin: Vec3(
                1240.0,
                600.0,
                343.0,
            ),
            angle: Vec3(
                0.0,
                0.0,
                0.0,
            ),
            old_origin: Vec3(
                1240.0,
                600.0,
                343.0,
            ),
        },
    ],
)
