---
source: src/net/messages.rs
expression: parsed_packets
---
[
    "2 Ok(Connectionless(Challenge(8437)))",
    "4 Ok(Connectionless(ClientConnect))",
    "6 Ok(ConnectionfulPacket(ConnectionfulPacketHeader { contains_reliable: true, sequence: 1, ack_sequence: true, ack_flag: 1 }, [ServerData(ServerData { protocol: 34, spawn_count: 22429, demo: 0, game_name: \"\", player_number: 1, level_string: \"The Edge\" }), StuffText(\"cmd configstrings 22429 0\\n\")]))",
    "8 Ok(ConnectionfulPacket(ConnectionfulPacketHeader { contains_reliable: true, sequence: 2, ack_sequence: false, ack_flag: 2 }, [ServerConfigString { index: 0, config: \"The Edge\" }, ServerConfigString { index: 1, config: \"7\" }, ServerConfigString { index: 2, config: \"unit1_\" }, ServerConfigString { index: 3, config: \"0.000000 0.000000 0.000000\" }, ServerConfigString { index: 4, config: \"0.000000\" }, ServerConfigString { index: 5, config: \"yb\\t-24 xv\\t0 hnum xv\\t50 pic 0 if 2 \\txv\\t100 \\tanum \\txv\\t150 \\tpic 2 endif if 4 \\txv\\t200 \\trnum \\txv\\t250 \\tpic 4 endif if 6 \\txv\\t296 \\tpic 6 endif yb\\t-50 if 7 \\txv\\t0 \\tpic 7 \\txv\\t26 \\tyb\\t-42 \\tstat_string 8 \\tyb\\t-50 endif if 9 \\txv\\t246 \\tnum\\t2\\t10 \\txv\\t296 \\tpic\\t9 endif if 11 \\txv\\t148 \\tpic\\t11 endif xr\\t-50 yt 2 num 3 14 if 17 xv 0 yb -58 string2 \\\"SPECTATOR MODE\\\" endif if 16 xv 0 yb -68 string \\\"Chasing\\\" xv 64 stat_string 16 endif \" }, ServerConfigString { index: 6, config: \"ndif if 4 \\txv\\t200 \\trnum \\txv\\t250 \\tpic 4 endif if 6 \\txv\\t296 \\tpic 6 endif yb\\t-50 if 7 \\txv\\t0 \\tpic 7 \\txv\\t26 \\tyb\\t-42 \\tstat_string 8 \\tyb\\t-50 endif if 9 \\txv\\t246 \\tnum\\t2\\t10 \\txv\\t296 \\tpic\\t9 endif if 11 \\txv\\t148 \\tpic\\t11 endif xr\\t-50 yt 2 num 3 14 if 17 xv 0 yb -58 string2 \\\"SPECTATOR MODE\\\" endif if 16 xv 0 yb -68 string \\\"Chasing\\\" xv 64 stat_string 16 endif \" }, StuffText(\"cmd configstrings 22429 7\\n\")]))",
    "10 Ok(ConnectionfulPacket(ConnectionfulPacketHeader { contains_reliable: true, sequence: 3, ack_sequence: true, ack_flag: 3 }, [ServerConfigString { index: 7, config: \" endif yb\\t-50 if 7 \\txv\\t0 \\tpic 7 \\txv\\t26 \\tyb\\t-42 \\tstat_string 8 \\tyb\\t-50 endif if 9 \\txv\\t246 \\tnum\\t2\\t10 \\txv\\t296 \\tpic\\t9 endif if 11 \\txv\\t148 \\tpic\\t11 endif xr\\t-50 yt 2 num 3 14 if 17 xv 0 yb -58 string2 \\\"SPECTATOR MODE\\\" endif if 16 xv 0 yb -68 string \\\"Chasing\\\" xv 64 stat_string 16 endif \" }, ServerConfigString { index: 8, config: \"b\\t-50 endif if 9 \\txv\\t246 \\tnum\\t2\\t10 \\txv\\t296 \\tpic\\t9 endif if 11 \\txv\\t148 \\tpic\\t11 endif xr\\t-50 yt 2 num 3 14 if 17 xv 0 yb -58 string2 \\\"SPECTATOR MODE\\\" endif if 16 xv 0 yb -68 string \\\"Chasing\\\" xv 64 stat_string 16 endif \" }, ServerConfigString { index: 9, config: \"v\\t148 \\tpic\\t11 endif xr\\t-50 yt 2 num 3 14 if 17 xv 0 yb -58 string2 \\\"SPECTATOR MODE\\\" endif if 16 xv 0 yb -68 string \\\"Chasing\\\" xv 64 stat_string 16 endif \" }, ServerConfigString { index: 10, config: \"g2 \\\"SPECTATOR MODE\\\" endif if 16 xv 0 yb -68 string \\\"Chasing\\\" xv 64 stat_string 16 endif \" }, StuffText(\"cmd configstrings 22429 11\\n\")]))",
    "12 Ok(ConnectionfulPacket(ConnectionfulPacketHeader { contains_reliable: true, sequence: 4, ack_sequence: false, ack_flag: 4 }, [ServerConfigString { index: 11, config: \"64 stat_string 16 endif \" }, ServerConfigString { index: 29, config: \"0\" }, ServerConfigString { index: 30, config: \"8\" }, ServerConfigString { index: 31, config: \"80717714\" }, ServerConfigString { index: 33, config: \"maps/Q2DM1.bsp\" }, ServerConfigString { index: 34, config: \"*1\" }, ServerConfigString { index: 35, config: \"*2\" }, ServerConfigString { index: 36, config: \"models/weapons/v_blast/tris.md2\" }, ServerConfigString { index: 37, config: \"#w_blaster.md2\" }, ServerConfigString { index: 38, config: \"#w_shotgun.md2\" }, ServerConfigString { index: 39, config: \"#w_sshotgun.md2\" }, ServerConfigString { index: 40, config: \"#w_machinegun.md2\" }, ServerConfigString { index: 41, config: \"#w_chaingun.md2\" }, ServerConfigString { index: 42, config: \"#a_grenades.md2\" }, ServerConfigString { index: 43, config: \"#w_glauncher.md2\" }, ServerConfigString { index: 44, config: \"#w_rlauncher.md2\" }, ServerConfigString { index: 45, config: \"#w_hyperblaster.md2\" }, ServerConfigString { index: 46, config: \"#w_railgun.md2\" }, ServerConfigString { index: 47, config: \"#w_bfg.md2\" }, ServerConfigString { index: 48, config: \"models/objects/gibs/sm_meat/tris.md2\" }, ServerConfigString { index: 49, config: \"models/objects/gibs/arm/tris.md2\" }, ServerConfigString { index: 50, config: \"models/objects/gibs/bone/tris.md2\" }, ServerConfigString { index: 51, config: \"models/objects/gibs/bone2/tris.md2\" }, ServerConfigString { index: 52, config: \"models/objects/gibs/chest/tris.md2\" }, ServerConfigString { index: 53, config: \"models/objects/gibs/skull/tris.md2\" }, ServerConfigString { index: 54, config: \"models/objects/gibs/head2/tris.md2\" }, ServerConfigString { index: 55, config: \"models/items/healing/medium/tris.md2\" }, ServerConfigString { index: 56, config: \"models/items/ammo/shells/medium/tris.md2\" }, ServerConfigString { index: 57, config: \"models/items/ammo/slugs/medium/tris.md2\" }, StuffText(\"cmd configstrings 22429 58\\n\")]))",
    "14 Ok(ConnectionfulPacket(ConnectionfulPacketHeader { contains_reliable: true, sequence: 5, ack_sequence: true, ack_flag: 5 }, [ServerConfigString { index: 58, config: \"models/items/ammo/grenades/medium/tris.md2\" }, ServerConfigString { index: 59, config: \"models/weapons/v_handgr/tris.md2\" }, ServerConfigString { index: 60, config: \"models/items/armor/combat/tris.md2\" }, ServerConfigString { index: 61, config: \"models/weapons/g_rocket/tris.md2\" }, ServerConfigString { index: 62, config: \"models/weapons/v_rocket/tris.md2\" }, ServerConfigString { index: 63, config: \"models/items/ammo/rockets/medium/tris.md2\" }, ServerConfigString { index: 64, config: \"models/objects/rocket/tris.md2\" }, ServerConfigString { index: 65, config: \"models/objects/debris2/tris.md2\" }, ServerConfigString { index: 66, config: \"models/items/ammo/cells/medium/tris.md2\" }, ServerConfigString { index: 67, config: \"models/weapons/g_hyperb/tris.md2\" }, ServerConfigString { index: 68, config: \"models/weapons/v_hyperb/tris.md2\" }, ServerConfigString { index: 69, config: \"models/objects/dmspot/tris.md2\" }, ServerConfigString { index: 70, config: \"models/weapons/g_shotg/tris.md2\" }, ServerConfigString { index: 71, config: \"models/weapons/v_shotg/tris.md2\" }, ServerConfigString { index: 72, config: \"models/items/ammo/bullets/medium/tris.md2\" }, ServerConfigString { index: 73, config: \"models/weapons/g_machn/tris.md2\" }, ServerConfigString { index: 74, config: \"models/weapons/v_machn/tris.md2\" }, ServerConfigString { index: 75, config: \"models/items/healing/large/tris.md2\" }, ServerConfigString { index: 76, config: \"models/items/armor/shard/tris.md2\" }, StuffText(\"cmd configstrings 22429 77\\n\")]))",
    "16 Ok(ConnectionfulPacket(ConnectionfulPacketHeader { contains_reliable: true, sequence: 6, ack_sequence: false, ack_flag: 6 }, [ServerConfigString { index: 77, config: \"models/weapons/g_shotg2/tris.md2\" }, ServerConfigString { index: 78, config: \"models/weapons/v_shotg2/tris.md2\" }, ServerConfigString { index: 79, config: \"models/weapons/g_launch/tris.md2\" }, ServerConfigString { index: 80, config: \"models/weapons/v_launch/tris.md2\" }, ServerConfigString { index: 81, config: \"models/objects/grenade/tris.md2\" }, ServerConfigString { index: 82, config: \"models/items/mega_h/tris.md2\" }, ServerConfigString { index: 83, config: \"models/items/pack/tris.md2\" }, ServerConfigString { index: 84, config: \"models/weapons/g_chain/tris.md2\" }, ServerConfigString { index: 85, config: \"models/weapons/v_chain/tris.md2\" }, ServerConfigString { index: 86, config: \"models/items/armor/jacket/tris.md2\" }, ServerConfigString { index: 87, config: \"models/items/healing/stimpack/tris.md2\" }, ServerConfigString { index: 88, config: \"models/weapons/g_rail/tris.md2\" }, ServerConfigString { index: 89, config: \"models/weapons/v_rail/tris.md2\" }, ServerConfigString { index: 289, config: \"player/fry.wav\" }, ServerConfigString { index: 290, config: \"misc/w_pkup.wav\" }, ServerConfigString { index: 291, config: \"weapons/blastf1a.wav\" }, ServerConfigString { index: 292, config: \"misc/lasfly.wav\" }, ServerConfigString { index: 293, config: \"player/lava1.wav\" }, ServerConfigString { index: 294, config: \"player/lava2.wav\" }, ServerConfigString { index: 295, config: \"misc/pc_up.wav\" }, ServerConfigString { index: 296, config: \"misc/talk1.wav\" }, ServerConfigString { index: 297, config: \"misc/udeath.wav\" }, ServerConfigString { index: 298, config: \"items/respawn1.wav\" }, ServerConfigString { index: 299, config: \"*death1.wav\" }, ServerConfigString { index: 300, config: \"*death2.wav\" }, ServerConfigString { index: 301, config: \"*death3.wav\" }, StuffText(\"cmd configstrings 22429 302\\n\")]))",
    "18 Ok(ConnectionfulPacket(ConnectionfulPacketHeader { contains_reliable: true, sequence: 7, ack_sequence: true, ack_flag: 7 }, [ServerConfigString { index: 302, config: \"*death4.wav\" }, ServerConfigString { index: 303, config: \"*fall1.wav\" }, ServerConfigString { index: 304, config: \"*fall2.wav\" }, ServerConfigString { index: 305, config: \"*gurp1.wav\" }, ServerConfigString { index: 306, config: \"*gurp2.wav\" }, ServerConfigString { index: 307, config: \"*jump1.wav\" }, ServerConfigString { index: 308, config: \"*pain25_1.wav\" }, ServerConfigString { index: 309, config: \"*pain25_2.wav\" }, ServerConfigString { index: 310, config: \"*pain50_1.wav\" }, ServerConfigString { index: 311, config: \"*pain50_2.wav\" }, ServerConfigString { index: 312, config: \"*pain75_1.wav\" }, ServerConfigString { index: 313, config: \"*pain75_2.wav\" }, ServerConfigString { index: 314, config: \"*pain100_1.wav\" }, ServerConfigString { index: 315, config: \"*pain100_2.wav\" }, ServerConfigString { index: 316, config: \"player/gasp1.wav\" }, ServerConfigString { index: 317, config: \"player/gasp2.wav\" }, ServerConfigString { index: 318, config: \"player/watr_in.wav\" }, ServerConfigString { index: 319, config: \"player/watr_out.wav\" }, ServerConfigString { index: 320, config: \"player/watr_un.wav\" }, ServerConfigString { index: 321, config: \"player/u_breath1.wav\" }, ServerConfigString { index: 322, config: \"player/u_breath2.wav\" }, ServerConfigString { index: 323, config: \"items/pkup.wav\" }, ServerConfigString { index: 324, config: \"world/land.wav\" }, ServerConfigString { index: 325, config: \"misc/h2ohit1.wav\" }, ServerConfigString { index: 326, config: \"items/damage.wav\" }, ServerConfigString { index: 327, config: \"items/protect.wav\" }, ServerConfigString { index: 328, config: \"items/protect4.wav\" }, ServerConfigString { index: 329, config: \"weapons/noammo.wav\" }, ServerConfigString { index: 330, config: \"infantry/inflies1.wav\" }, ServerConfigString { index: 331, config: \"world/drip_amb.wav\" }, ServerConfigString { index: 332, config: \"world/wind2.wav\" }, ServerConfigString { index: 333, config: \"items/s_health.wav\" }, ServerConfigString { index: 334, config: \"items/n_health.wav\" }, ServerConfigString { index: 335, config: \"items/l_health.wav\" }, ServerConfigString { index: 336, config: \"items/m_health.wav\" }, ServerConfigString { index: 337, config: \"misc/am_pkup.wav\" }, ServerConfigString { index: 338, config: \"weapons/hgrent1a.wav\" }, StuffText(\"cmd configstrings 22429 339\\n\")]))",
    "20 Ok(ConnectionfulPacket(ConnectionfulPacketHeader { contains_reliable: true, sequence: 8, ack_sequence: false, ack_flag: 8 }, [ServerConfigString { index: 339, config: \"weapons/hgrena1b.wav\" }, ServerConfigString { index: 340, config: \"weapons/hgrenc1b.wav\" }, ServerConfigString { index: 341, config: \"weapons/hgrenb1a.wav\" }, ServerConfigString { index: 342, config: \"weapons/hgrenb2a.wav\" }, ServerConfigString { index: 343, config: \"misc/ar1_pkup.wav\" }, ServerConfigString { index: 344, config: \"weapons/rockfly.wav\" }, ServerConfigString { index: 345, config: \"weapons/rocklf1a.wav\" }, ServerConfigString { index: 346, config: \"weapons/rocklr1b.wav\" }, ServerConfigString { index: 347, config: \"weapons/hyprbu1a.wav\" }, ServerConfigString { index: 348, config: \"weapons/hyprbl1a.wav\" }, ServerConfigString { index: 349, config: \"weapons/hyprbf1a.wav\" }, ServerConfigString { index: 350, config: \"weapons/hyprbd1a.wav\" }, ServerConfigString { index: 351, config: \"weapons/shotgf1b.wav\" }, ServerConfigString { index: 352, config: \"weapons/shotgr1b.wav\" }, ServerConfigString { index: 353, config: \"weapons/machgf1b.wav\" }, ServerConfigString { index: 354, config: \"weapons/machgf2b.wav\" }, ServerConfigString { index: 355, config: \"weapons/machgf3b.wav\" }, ServerConfigString { index: 356, config: \"weapons/machgf4b.wav\" }, ServerConfigString { index: 357, config: \"weapons/machgf5b.wav\" }, ServerConfigString { index: 358, config: \"misc/ar2_pkup.wav\" }, ServerConfigString { index: 359, config: \"weapons/sshotf1b.wav\" }, ServerConfigString { index: 360, config: \"weapons/grenlf1a.wav\" }, ServerConfigString { index: 361, config: \"weapons/grenlr1b.wav\" }, ServerConfigString { index: 362, config: \"weapons/grenlb1b.wav\" }, ServerConfigString { index: 363, config: \"weapons/chngnu1a.wav\" }, ServerConfigString { index: 364, config: \"weapons/chngnl1a.wav\" }, ServerConfigString { index: 365, config: \"weapons/chngnd1a.wav\" }, ServerConfigString { index: 366, config: \"weapons/rg_hum.wav\" }, ServerConfigString { index: 367, config: \"plats/pt1_strt.wav\" }, ServerConfigString { index: 368, config: \"plats/pt1_mid.wav\" }, StuffText(\"cmd configstrings 22429 369\\n\")]))",
    "22 Ok(ConnectionfulPacket(ConnectionfulPacketHeader { contains_reliable: true, sequence: 9, ack_sequence: true, ack_flag: 9 }, [ServerConfigString { index: 369, config: \"plats/pt1_end.wav\" }, ServerConfigString { index: 545, config: \"i_help\" }, ServerConfigString { index: 546, config: \"i_health\" }, ServerConfigString { index: 547, config: \"help\" }, ServerConfigString { index: 548, config: \"field_3\" }, ServerConfigString { index: 549, config: \"w_blaster\" }, ServerConfigString { index: 550, config: \"a_shells\" }, ServerConfigString { index: 551, config: \"a_slugs\" }, ServerConfigString { index: 552, config: \"a_grenades\" }, ServerConfigString { index: 553, config: \"i_combatarmor\" }, ServerConfigString { index: 554, config: \"w_rlauncher\" }, ServerConfigString { index: 555, config: \"a_rockets\" }, ServerConfigString { index: 556, config: \"a_cells\" }, ServerConfigString { index: 557, config: \"w_hyperblaster\" }, ServerConfigString { index: 558, config: \"w_shotgun\" }, ServerConfigString { index: 559, config: \"a_bullets\" }, ServerConfigString { index: 560, config: \"w_machinegun\" }, ServerConfigString { index: 561, config: \"i_jacketarmor\" }, ServerConfigString { index: 562, config: \"w_sshotgun\" }, ServerConfigString { index: 563, config: \"w_glauncher\" }, ServerConfigString { index: 564, config: \"i_pack\" }, ServerConfigString { index: 565, config: \"w_chaingun\" }, ServerConfigString { index: 566, config: \"w_railgun\" }, ServerConfigString { index: 800, config: \"m\" }, ServerConfigString { index: 801, config: \"mmnmmommommnonmmonqnmmo\" }, ServerConfigString { index: 802, config: \"abcdefghijklmnopqrstuvwxyzyxwvutsrqponmlkjihgfedcba\" }, ServerConfigString { index: 803, config: \"mmmmmaaaaammmmmaaaaaabcdefgabcdefg\" }, ServerConfigString { index: 804, config: \"mamamamamama\" }, ServerConfigString { index: 805, config: \"jklmnopqrstuvwxyzyxwvutsrqponmlkj\" }, ServerConfigString { index: 806, config: \"nmonqnmomnmomomno\" }, ServerConfigString { index: 807, config: \"mmmaaaabcdefgmmmmaaaammmaamm\" }, ServerConfigString { index: 808, config: \"mmmaaammmaaammmabcdefaaaammmmabcdefmmmaaaa\" }, ServerConfigString { index: 809, config: \"aaaaaaaazzzzzzzz\" }, ServerConfigString { index: 810, config: \"mmamammmmammamamaaamammma\" }, ServerConfigString { index: 811, config: \"abcdefghijklmnopqrrqponmlkjihgfedcba\" }, ServerConfigString { index: 863, config: \"a\" }, ServerConfigString { index: 1057, config: \"Body Armor\" }, ServerConfigString { index: 1058, config: \"Combat Armor\" }, StuffText(\"cmd configstrings 22429 1059\\n\")]))",
    "24 Ok(ConnectionfulPacket(ConnectionfulPacketHeader { contains_reliable: true, sequence: 10, ack_sequence: false, ack_flag: 10 }, [ServerConfigString { index: 1059, config: \"Jacket Armor\" }, ServerConfigString { index: 1060, config: \"Armor Shard\" }, ServerConfigString { index: 1061, config: \"Power Screen\" }, ServerConfigString { index: 1062, config: \"Power Shield\" }, ServerConfigString { index: 1063, config: \"Blaster\" }, ServerConfigString { index: 1064, config: \"Shotgun\" }, ServerConfigString { index: 1065, config: \"Super Shotgun\" }, ServerConfigString { index: 1066, config: \"Machinegun\" }, ServerConfigString { index: 1067, config: \"Chaingun\" }, ServerConfigString { index: 1068, config: \"Grenades\" }, ServerConfigString { index: 1069, config: \"Grenade Launcher\" }, ServerConfigString { index: 1070, config: \"Rocket Launcher\" }, ServerConfigString { index: 1071, config: \"HyperBlaster\" }, ServerConfigString { index: 1072, config: \"Railgun\" }, ServerConfigString { index: 1073, config: \"BFG10K\" }, ServerConfigString { index: 1074, config: \"Shells\" }, ServerConfigString { index: 1075, config: \"Bullets\" }, ServerConfigString { index: 1076, config: \"Cells\" }, ServerConfigString { index: 1077, config: \"Rockets\" }, ServerConfigString { index: 1078, config: \"Slugs\" }, ServerConfigString { index: 1079, config: \"Quad Damage\" }, ServerConfigString { index: 1080, config: \"Invulnerability\" }, ServerConfigString { index: 1081, config: \"Silencer\" }, ServerConfigString { index: 1082, config: \"Rebreather\" }, ServerConfigString { index: 1083, config: \"Environment Suit\" }, ServerConfigString { index: 1084, config: \"Ancient Head\" }, ServerConfigString { index: 1085, config: \"Adrenaline\" }, ServerConfigString { index: 1086, config: \"Bandolier\" }, ServerConfigString { index: 1087, config: \"Ammo Pack\" }, ServerConfigString { index: 1088, config: \"Data CD\" }, ServerConfigString { index: 1089, config: \"Power Cube\" }, ServerConfigString { index: 1090, config: \"Pyramid Key\" }, ServerConfigString { index: 1091, config: \"Data Spinner\" }, ServerConfigString { index: 1092, config: \"Security Pass\" }, ServerConfigString { index: 1093, config: \"Blue Key\" }, ServerConfigString { index: 1094, config: \"Red Key\" }, ServerConfigString { index: 1095, config: \"Commander\\'s Head\" }, ServerConfigString { index: 1096, config: \"Airstrike Marker\" }, ServerConfigString { index: 1097, config: \"Health\" }, ServerConfigString { index: 1312, config: \"Player\\\\male/grunt\" }, ServerConfigString { index: 1313, config: \"Player\\\\male/grunt\" }, StuffText(\"cmd baselines 22429 0\\n\")]))",
    "26 Ok(ConnectionfulPacket(ConnectionfulPacketHeader { contains_reliable: true, sequence: 11, ack_sequence: true, ack_flag: 11 }, [SpawnBaseLine(EntityState { number: 18, model_indices: [0, 0, 0, 0], frame: 0, skinnum: 0, renderfx: 0, origin: Vec3(244.0, -236.0, 332.0), angle: Vec3(0.0, 0.0, 0.0), old_origin: Vec3(244.0, -236.0, 332.0) }), SpawnBaseLine(EntityState { number: 19, model_indices: [0, 0, 0, 0], frame: 0, skinnum: 0, renderfx: 0, origin: Vec3(244.0, 36.0, 332.0), angle: Vec3(0.0, 0.0, 0.0), old_origin: Vec3(244.0, 36.0, 332.0) }), SpawnBaseLine(EntityState { number: 20, model_indices: [0, 0, 0, 0], frame: 0, skinnum: 0, renderfx: 0, origin: Vec3(940.0, 628.0, 420.0), angle: Vec3(0.0, 0.0, 0.0), old_origin: Vec3(940.0, 628.0, 420.0) }), SpawnBaseLine(EntityState { number: 21, model_indices: [0, 0, 0, 0], frame: 0, skinnum: 0, renderfx: 0, origin: Vec3(908.0, 820.0, 420.0), angle: Vec3(0.0, 0.0, 0.0), old_origin: Vec3(908.0, 820.0, 420.0) }), SpawnBaseLine(EntityState { number: 22, model_indices: [0, 0, 0, 0], frame: 0, skinnum: 0, renderfx: 0, origin: Vec3(244.0, -396.0, 524.0), angle: Vec3(0.0, 0.0, 0.0), old_origin: Vec3(244.0, -396.0, 524.0) }), SpawnBaseLine(EntityState { number: 23, model_indices: [0, 0, 0, 0], frame: 0, skinnum: 0, renderfx: 0, origin: Vec3(1284.0, 628.0, 420.0), angle: Vec3(0.0, 0.0, 0.0), old_origin: Vec3(1284.0, 628.0, 420.0) }), SpawnBaseLine(EntityState { number: 24, model_indices: [0, 0, 0, 0], frame: 0, skinnum: 0, renderfx: 0, origin: Vec3(1596.0, 980.0, 1132.0), angle: Vec3(0.0, 0.0, 0.0), old_origin: Vec3(1596.0, 980.0, 1132.0) }), SpawnBaseLine(EntityState { number: 25, model_indices: [0, 0, 0, 0], frame: 0, skinnum: 0, renderfx: 0, origin: Vec3(388.0, 580.0, 756.0), angle: Vec3(0.0, 0.0, 0.0), old_origin: Vec3(388.0, 580.0, 756.0) }), SpawnBaseLine(EntityState { number: 26, model_indices: [23, 0, 0, 0], frame: 0, skinnum: 0, renderfx: 512, origin: Vec3(1192.0, -24.0, 911.0), angle: Vec3(0.0, 0.0, 0.0), old_origin: Vec3(1192.0, -24.0, 911.0) }), SpawnBaseLine(EntityState { number: 27, model_indices: [23, 0, 0, 0], frame: 0, skinnum: 0, renderfx: 512, origin: Vec3(1232.0, -24.0, 911.0), angle: Vec3(0.0, 0.0, 0.0), old_origin: Vec3(1232.0, -24.0, 911.0) }), SpawnBaseLine(EntityState { number: 28, model_indices: [24, 0, 0, 0], frame: 0, skinnum: 0, renderfx: 512, origin: Vec3(1504.0, 104.0, 655.0), angle: Vec3(0.0, 0.0, 0.0), old_origin: Vec3(1504.0, 104.0, 655.0) }), SpawnBaseLine(EntityState { number: 29, model_indices: [24, 0, 0, 0], frame: 0, skinnum: 0, renderfx: 512, origin: Vec3(1448.0, 160.0, 655.0), angle: Vec3(0.0, 0.0, 0.0), old_origin: Vec3(1448.0, 160.0, 655.0) }), SpawnBaseLine(EntityState { number: 30, model_indices: [23, 0, 0, 0], frame: 0, skinnum: 0, renderfx: 512, origin: Vec3(1960.0, 40.0, 655.0), angle: Vec3(0.0, 0.0, 0.0), old_origin: Vec3(1960.0, 40.0, 655.0) }), SpawnBaseLine(EntityState { number: 31, model_indices: [23, 0, 0, 0], frame: 0, skinnum: 0, renderfx: 512, origin: Vec3(1960.0, -16.0, 655.0), angle: Vec3(0.0, 0.0, 0.0), old_origin: Vec3(1960.0, -16.0, 655.0) }), SpawnBaseLine(EntityState { number: 32, model_indices: [25, 0, 0, 0], frame: 0, skinnum: 0, renderfx: 512, origin: Vec3(1960.0, 160.0, 655.0), angle: Vec3(0.0, 0.0, 0.0), old_origin: Vec3(1960.0, 160.0, 655.0) }), SpawnBaseLine(EntityState { number: 33, model_indices: [26, 0, 0, 0], frame: 0, skinnum: 0, renderfx: 512, origin: Vec3(1672.0, 488.0, 527.0), angle: Vec3(0.0, 0.0, 0.0), old_origin: Vec3(1672.0, 488.0, 527.0) }), SpawnBaseLine(EntityState { number: 34, model_indices: [26, 0, 0, 0], frame: 0, skinnum: 0, renderfx: 512, origin: Vec3(1720.0, 488.0, 527.0), angle: Vec3(0.0, 0.0, 0.0), old_origin: Vec3(1720.0, 488.0, 527.0) }), SpawnBaseLine(EntityState { number: 35, model_indices: [28, 0, 0, 0], frame: 0, skinnum: 0, renderfx: 512, origin: Vec3(1072.0, 1280.0, 911.0), angle: Vec3(0.0, 0.0, 0.0), old_origin: Vec3(1072.0, 1280.0, 911.0) }), SpawnBaseLine(EntityState { number: 36, model_indices: [29, 0, 0, 0], frame: 0, skinnum: 0, renderfx: 512, origin: Vec3(704.0, 104.0, 911.0), angle: Vec3(0.0, 0.0, 0.0), old_origin: Vec3(704.0, 104.0, 911.0) }), SpawnBaseLine(EntityState { number: 37, model_indices: [34, 0, 0, 0], frame: 0, skinnum: 0, renderfx: 512, origin: Vec3(1504.0, 992.0, 911.0), angle: Vec3(0.0, 0.0, 0.0), old_origin: Vec3(1504.0, 992.0, 911.0) }), SpawnBaseLine(EntityState { number: 38, model_indices: [35, 0, 0, 0], frame: 0, skinnum: 0, renderfx: 512, origin: Vec3(1472.0, 1104.0, 911.0), angle: Vec3(0.0, 0.0, 0.0), old_origin: Vec3(1472.0, 1104.0, 911.0) }), SpawnBaseLine(EntityState { number: 39, model_indices: [37, 0, 0, 0], frame: 0, skinnum: 0, renderfx: 0, origin: Vec3(544.0, 352.0, 482.0), angle: Vec3(0.0, 0.0, 0.0), old_origin: Vec3(544.0, 352.0, 482.0) }), SpawnBaseLine(EntityState { number: 40, model_indices: [37, 0, 0, 0], frame: 0, skinnum: 0, renderfx: 0, origin: Vec3(1552.0, 600.0, 352.0), angle: Vec3(0.0, 135.0, 0.0), old_origin: Vec3(1552.0, 600.0, 352.0) }), SpawnBaseLine(EntityState { number: 41, model_indices: [37, 0, 0, 0], frame: 0, skinnum: 0, renderfx: 0, origin: Vec3(1888.0, 736.0, 536.0), angle: Vec3(0.0, 180.0, 0.0), old_origin: Vec3(1888.0, 736.0, 536.0) }), SpawnBaseLine(EntityState { number: 42, model_indices: [37, 0, 0, 0], frame: 0, skinnum: 0, renderfx: 0, origin: Vec3(-80.0, 800.0, 472.0), angle: Vec3(0.0, 0.0, 0.0), old_origin: Vec3(-80.0, 800.0, 472.0) }), SpawnBaseLine(EntityState { number: 43, model_indices: [37, 0, 0, 0], frame: 0, skinnum: 0, renderfx: 0, origin: Vec3(1488.0, -48.0, 664.0), angle: Vec3(0.0, 135.0, 0.0), old_origin: Vec3(1488.0, -48.0, 664.0) }), SpawnBaseLine(EntityState { number: 44, model_indices: [37, 0, 0, 0], frame: 0, skinnum: 0, renderfx: 0, origin: Vec3(1888.0, 464.0, 920.0), angle: Vec3(0.0, 270.0, 0.0), old_origin: Vec3(1888.0, 464.0, 920.0) }), SpawnBaseLine(EntityState { number: 45, model_indices: [37, 0, 0, 0], frame: 0, skinnum: 0, renderfx: 0, origin: Vec3(2016.0, -224.0, 664.0), angle: Vec3(0.0, 90.0, 0.0), old_origin: Vec3(2016.0, -224.0, 664.0) }), SpawnBaseLine(EntityState { number: 46, model_indices: [37, 0, 0, 0], frame: 0, skinnum: 0, renderfx: 0, origin: Vec3(1512.0, -24.0, 536.0), angle: Vec3(0.0, 90.0, 0.0), old_origin: Vec3(1512.0, -24.0, 536.0) }), SpawnBaseLine(EntityState { number: 47, model_indices: [38, 0, 0, 0], frame: 0, skinnum: 0, renderfx: 512, origin: Vec3(1688.0, 96.0, 527.0), angle: Vec3(0.0, 0.0, 0.0), old_origin: Vec3(1688.0, 96.0, 527.0) }), SpawnBaseLine(EntityState { number: 48, model_indices: [40, 0, 0, 0], frame: 0, skinnum: 0, renderfx: 512, origin: Vec3(1512.0, 136.0, 527.0), angle: Vec3(0.0, 0.0, 0.0), old_origin: Vec3(1512.0, 136.0, 527.0) }), SpawnBaseLine(EntityState { number: 49, model_indices: [40, 0, 0, 0], frame: 0, skinnum: 0, renderfx: 512, origin: Vec3(1512.0, 88.0, 527.0), angle: Vec3(0.0, 0.0, 0.0), old_origin: Vec3(1512.0, 88.0, 527.0) }), SpawnBaseLine(EntityState { number: 50, model_indices: [40, 0, 0, 0], frame: 0, skinnum: 0, renderfx: 512, origin: Vec3(1280.0, 600.0, 343.0), angle: Vec3(0.0, 0.0, 0.0), old_origin: Vec3(1280.0, 600.0, 343.0) }), SpawnBaseLine(EntityState { number: 51, model_indices: [40, 0, 0, 0], frame: 0, skinnum: 0, renderfx: 512, origin: Vec3(1240.0, 600.0, 343.0), angle: Vec3(0.0, 0.0, 0.0), old_origin: Vec3(1240.0, 600.0, 343.0) }), StuffText(\"cmd baselines 22429 52\\n\")]))",
    "28 Ok(ConnectionfulPacket(ConnectionfulPacketHeader { contains_reliable: true, sequence: 12, ack_sequence: false, ack_flag: 12 }, [SpawnBaseLine(EntityState { number: 52, model_indices: [41, 0, 0, 0], frame: 0, skinnum: 0, renderfx: 512, origin: Vec3(1280.0, 640.0, 343.0), angle: Vec3(0.0, 0.0, 0.0), old_origin: Vec3(1280.0, 640.0, 343.0) }), SpawnBaseLine(EntityState { number: 53, model_indices: [24, 0, 0, 0], frame: 0, skinnum: 0, renderfx: 512, origin: Vec3(1488.0, 520.0, 463.0), angle: Vec3(0.0, 0.0, 0.0), old_origin: Vec3(1488.0, 520.0, 463.0) }), SpawnBaseLine(EntityState { number: 54, model_indices: [24, 0, 0, 0], frame: 0, skinnum: 0, renderfx: 512, origin: Vec3(1448.0, 480.0, 463.0), angle: Vec3(0.0, 0.0, 0.0), old_origin: Vec3(1448.0, 480.0, 463.0) }), SpawnBaseLine(EntityState { number: 55, model_indices: [38, 0, 0, 0], frame: 0, skinnum: 0, renderfx: 512, origin: Vec3(1528.0, 576.0, 463.0), angle: Vec3(0.0, 0.0, 0.0), old_origin: Vec3(1528.0, 576.0, 463.0) }), SpawnBaseLine(EntityState { number: 56, model_indices: [43, 0, 0, 0], frame: 0, skinnum: 0, renderfx: 512, origin: Vec3(2040.0, 832.0, 399.0), angle: Vec3(0.0, 0.0, 0.0), old_origin: Vec3(2040.0, 832.0, 399.0) }), SpawnBaseLine(EntityState { number: 57, model_indices: [31, 0, 0, 0], frame: 0, skinnum: 0, renderfx: 512, origin: Vec3(2032.0, 288.0, 399.0), angle: Vec3(0.0, 0.0, 0.0), old_origin: Vec3(2032.0, 288.0, 399.0) }), SpawnBaseLine(EntityState { number: 58, model_indices: [31, 0, 0, 0], frame: 0, skinnum: 0, renderfx: 512, origin: Vec3(1952.0, 288.0, 399.0), angle: Vec3(0.0, 0.0, 0.0), old_origin: Vec3(1952.0, 288.0, 399.0) }), SpawnBaseLine(EntityState { number: 59, model_indices: [29, 0, 0, 0], frame: 0, skinnum: 0, renderfx: 512, origin: Vec3(1992.0, 320.0, 399.0), angle: Vec3(0.0, 0.0, 0.0), old_origin: Vec3(1992.0, 320.0, 399.0) }), SpawnBaseLine(EntityState { number: 60, model_indices: [40, 0, 0, 0], frame: 0, skinnum: 0, renderfx: 512, origin: Vec3(1824.0, 928.0, 463.0), angle: Vec3(0.0, 0.0, 0.0), old_origin: Vec3(1824.0, 928.0, 463.0) }), SpawnBaseLine(EntityState { number: 61, model_indices: [40, 0, 0, 0], frame: 0, skinnum: 0, renderfx: 512, origin: Vec3(1784.0, 928.0, 463.0), angle: Vec3(0.0, 0.0, 0.0), old_origin: Vec3(1784.0, 928.0, 463.0) }), SpawnBaseLine(EntityState { number: 62, model_indices: [41, 0, 0, 0], frame: 0, skinnum: 0, renderfx: 512, origin: Vec3(1888.0, 936.0, 527.0), angle: Vec3(0.0, 0.0, 0.0), old_origin: Vec3(1888.0, 936.0, 527.0) }), SpawnBaseLine(EntityState { number: 63, model_indices: [43, 0, 0, 0], frame: 0, skinnum: 0, renderfx: 512, origin: Vec3(1248.0, 360.0, 655.0), angle: Vec3(0.0, 0.0, 0.0), old_origin: Vec3(1248.0, 360.0, 655.0) }), SpawnBaseLine(EntityState { number: 64, model_indices: [43, 0, 0, 0], frame: 0, skinnum: 0, renderfx: 512, origin: Vec3(1248.0, 320.0, 655.0), angle: Vec3(0.0, 0.0, 0.0), old_origin: Vec3(1248.0, 320.0, 655.0) }), SpawnBaseLine(EntityState { number: 65, model_indices: [28, 0, 0, 0], frame: 0, skinnum: 0, renderfx: 512, origin: Vec3(1440.0, 992.0, 655.0), angle: Vec3(0.0, 0.0, 0.0), old_origin: Vec3(1440.0, 992.0, 655.0) }), SpawnBaseLine(EntityState { number: 66, model_indices: [44, 0, 0, 0], frame: 0, skinnum: 0, renderfx: 512, origin: Vec3(1824.0, 648.0, 911.0), angle: Vec3(0.0, 0.0, 0.0), old_origin: Vec3(1824.0, 648.0, 911.0) }), SpawnBaseLine(EntityState { number: 67, model_indices: [44, 0, 0, 0], frame: 0, skinnum: 0, renderfx: 512, origin: Vec3(1824.0, 688.0, 911.0), angle: Vec3(0.0, 0.0, 0.0), old_origin: Vec3(1824.0, 688.0, 911.0) }), SpawnBaseLine(EntityState { number: 68, model_indices: [44, 0, 0, 0], frame: 0, skinnum: 0, renderfx: 512, origin: Vec3(1824.0, 728.0, 911.0), angle: Vec3(0.0, 0.0, 0.0), old_origin: Vec3(1824.0, 728.0, 911.0) }), SpawnBaseLine(EntityState { number: 69, model_indices: [44, 0, 0, 0], frame: 0, skinnum: 0, renderfx: 512, origin: Vec3(1824.0, 608.0, 911.0), angle: Vec3(0.0, 0.0, 0.0), old_origin: Vec3(1824.0, 608.0, 911.0) }), SpawnBaseLine(EntityState { number: 70, model_indices: [24, 0, 0, 0], frame: 0, skinnum: 0, renderfx: 512, origin: Vec3(1888.0, 720.0, 1039.0), angle: Vec3(0.0, 0.0, 0.0), old_origin: Vec3(1888.0, 720.0, 1039.0) }), SpawnBaseLine(EntityState { number: 71, model_indices: [24, 0, 0, 0], frame: 0, skinnum: 0, renderfx: 512, origin: Vec3(1888.0, 680.0, 1039.0), angle: Vec3(0.0, 0.0, 0.0), old_origin: Vec3(1888.0, 680.0, 1039.0) }), SpawnBaseLine(EntityState { number: 72, model_indices: [45, 0, 0, 0], frame: 0, skinnum: 0, renderfx: 512, origin: Vec3(1504.0, 160.0, 655.0), angle: Vec3(0.0, 0.0, 0.0), old_origin: Vec3(1504.0, 160.0, 655.0) }), SpawnBaseLine(EntityState { number: 73, model_indices: [23, 0, 0, 0], frame: 0, skinnum: 0, renderfx: 512, origin: Vec3(1304.0, 1344.0, 911.0), angle: Vec3(0.0, 0.0, 0.0), old_origin: Vec3(1304.0, 1344.0, 911.0) }), SpawnBaseLine(EntityState { number: 74, model_indices: [23, 0, 0, 0], frame: 0, skinnum: 0, renderfx: 512, origin: Vec3(1304.0, 1304.0, 911.0), angle: Vec3(0.0, 0.0, 0.0), old_origin: Vec3(1304.0, 1304.0, 911.0) }), SpawnBaseLine(EntityState { number: 75, model_indices: [37, 0, 0, 0], frame: 0, skinnum: 0, renderfx: 0, origin: Vec3(1328.0, 1208.0, 920.0), angle: Vec3(0.0, 45.0, 0.0), old_origin: Vec3(1328.0, 1208.0, 920.0) }), SpawnBaseLine(EntityState { number: 76, model_indices: [44, 0, 0, 0], frame: 0, skinnum: 0, renderfx: 512, origin: Vec3(416.0, 1232.0, 783.0), angle: Vec3(0.0, 0.0, 0.0), old_origin: Vec3(416.0, 1232.0, 783.0) }), SpawnBaseLine(EntityState { number: 77, model_indices: [44, 0, 0, 0], frame: 0, skinnum: 0, renderfx: 512, origin: Vec3(416.0, 1272.0, 783.0), angle: Vec3(0.0, 0.0, 0.0), old_origin: Vec3(416.0, 1272.0, 783.0) }), SpawnBaseLine(EntityState { number: 78, model_indices: [44, 0, 0, 0], frame: 0, skinnum: 0, renderfx: 512, origin: Vec3(416.0, 1312.0, 783.0), angle: Vec3(0.0, 0.0, 0.0), old_origin: Vec3(416.0, 1312.0, 783.0) }), SpawnBaseLine(EntityState { number: 79, model_indices: [44, 0, 0, 0], frame: 0, skinnum: 0, renderfx: 512, origin: Vec3(416.0, 1192.0, 783.0), angle: Vec3(0.0, 0.0, 0.0), old_origin: Vec3(416.0, 1192.0, 783.0) }), SpawnBaseLine(EntityState { number: 80, model_indices: [26, 0, 0, 0], frame: 0, skinnum: 0, renderfx: 512, origin: Vec3(800.0, 1584.0, 783.0), angle: Vec3(0.0, 0.0, 0.0), old_origin: Vec3(800.0, 1584.0, 783.0) }), SpawnBaseLine(EntityState { number: 81, model_indices: [26, 0, 0, 0], frame: 0, skinnum: 0, renderfx: 512, origin: Vec3(800.0, 1536.0, 783.0), angle: Vec3(0.0, 0.0, 0.0), old_origin: Vec3(800.0, 1536.0, 783.0) }), SpawnBaseLine(EntityState { number: 82, model_indices: [47, 0, 0, 0], frame: 0, skinnum: 0, renderfx: 512, origin: Vec3(1576.0, 936.0, 1039.0), angle: Vec3(0.0, 0.0, 0.0), old_origin: Vec3(1576.0, 936.0, 1039.0) }), SpawnBaseLine(EntityState { number: 83, model_indices: [37, 0, 0, 0], frame: 0, skinnum: 0, renderfx: 0, origin: Vec3(832.0, 1744.0, 792.0), angle: Vec3(0.0, 270.0, 0.0), old_origin: Vec3(832.0, 1744.0, 792.0) }), SpawnBaseLine(EntityState { number: 84, model_indices: [31, 0, 0, 0], frame: 0, skinnum: 0, renderfx: 512, origin: Vec3(416.0, 1440.0, 911.0), angle: Vec3(0.0, 0.0, 0.0), old_origin: Vec3(416.0, 1440.0, 911.0) }), StuffText(\"cmd baselines 22429 85\\n\")]))",
    "30 Ok(ConnectionfulPacket(ConnectionfulPacketHeader { contains_reliable: true, sequence: 13, ack_sequence: true, ack_flag: 13 }, [SpawnBaseLine(EntityState { number: 85, model_indices: [50, 0, 0, 0], frame: 0, skinnum: 0, renderfx: 512, origin: Vec3(480.0, 1376.0, 911.0), angle: Vec3(0.0, 0.0, 0.0), old_origin: Vec3(480.0, 1376.0, 911.0) }), SpawnBaseLine(EntityState { number: 86, model_indices: [26, 0, 0, 0], frame: 0, skinnum: 0, renderfx: 512, origin: Vec3(1120.0, 1408.0, 847.0), angle: Vec3(0.0, 0.0, 0.0), old_origin: Vec3(1120.0, 1408.0, 847.0) }), SpawnBaseLine(EntityState { number: 87, model_indices: [51, 0, 0, 0], frame: 0, skinnum: 0, renderfx: 512, origin: Vec3(736.0, 1152.0, 847.0), angle: Vec3(0.0, 0.0, 0.0), old_origin: Vec3(736.0, 1152.0, 847.0) }), SpawnBaseLine(EntityState { number: 88, model_indices: [40, 0, 0, 0], frame: 0, skinnum: 0, renderfx: 512, origin: Vec3(1336.0, 1280.0, 783.0), angle: Vec3(0.0, 0.0, 0.0), old_origin: Vec3(1336.0, 1280.0, 783.0) }), SpawnBaseLine(EntityState { number: 89, model_indices: [40, 0, 0, 0], frame: 0, skinnum: 0, renderfx: 512, origin: Vec3(1336.0, 1352.0, 783.0), angle: Vec3(0.0, 0.0, 0.0), old_origin: Vec3(1336.0, 1352.0, 783.0) }), SpawnBaseLine(EntityState { number: 90, model_indices: [40, 0, 0, 0], frame: 0, skinnum: 0, renderfx: 512, origin: Vec3(1336.0, 1208.0, 783.0), angle: Vec3(0.0, 0.0, 0.0), old_origin: Vec3(1336.0, 1208.0, 783.0) }), SpawnBaseLine(EntityState { number: 91, model_indices: [52, 0, 0, 0], frame: 0, skinnum: 0, renderfx: 512, origin: Vec3(1400.0, 1280.0, 783.0), angle: Vec3(0.0, 0.0, 0.0), old_origin: Vec3(1400.0, 1280.0, 783.0) }), SpawnBaseLine(EntityState { number: 92, model_indices: [54, 0, 0, 0], frame: 0, skinnum: 0, renderfx: 512, origin: Vec3(1888.0, 1128.0, 1039.0), angle: Vec3(0.0, 0.0, 0.0), old_origin: Vec3(1888.0, 1128.0, 1039.0) }), SpawnBaseLine(EntityState { number: 93, model_indices: [43, 0, 0, 0], frame: 0, skinnum: 0, renderfx: 512, origin: Vec3(1888.0, 1184.0, 1039.0), angle: Vec3(0.0, 0.0, 0.0), old_origin: Vec3(1888.0, 1184.0, 1039.0) }), SpawnBaseLine(EntityState { number: 94, model_indices: [34, 0, 0, 0], frame: 0, skinnum: 0, renderfx: 512, origin: Vec3(1848.0, -44.0, 911.0), angle: Vec3(0.0, 0.0, 0.0), old_origin: Vec3(1848.0, -44.0, 911.0) }), SpawnBaseLine(EntityState { number: 95, model_indices: [34, 0, 0, 0], frame: 0, skinnum: 0, renderfx: 512, origin: Vec3(1816.0, -80.0, 911.0), angle: Vec3(0.0, 0.0, 0.0), old_origin: Vec3(1816.0, -80.0, 911.0) }), SpawnBaseLine(EntityState { number: 96, model_indices: [40, 0, 0, 0], frame: 0, skinnum: 0, renderfx: 512, origin: Vec3(640.0, 360.0, 783.0), angle: Vec3(0.0, 0.0, 0.0), old_origin: Vec3(640.0, 360.0, 783.0) }), SpawnBaseLine(EntityState { number: 97, model_indices: [40, 0, 0, 0], frame: 0, skinnum: 0, renderfx: 512, origin: Vec3(660.0, 324.0, 783.0), angle: Vec3(0.0, 0.0, 0.0), old_origin: Vec3(660.0, 324.0, 783.0) }), SpawnBaseLine(EntityState { number: 98, model_indices: [40, 0, 0, 0], frame: 0, skinnum: 0, renderfx: 512, origin: Vec3(624.0, 400.0, 783.0), angle: Vec3(0.0, 0.0, 0.0), old_origin: Vec3(624.0, 400.0, 783.0) }), SpawnBaseLine(EntityState { number: 99, model_indices: [31, 0, 0, 0], frame: 0, skinnum: 0, renderfx: 512, origin: Vec3(-80.0, 336.0, 655.0), angle: Vec3(0.0, 0.0, 0.0), old_origin: Vec3(-80.0, 336.0, 655.0) }), SpawnBaseLine(EntityState { number: 100, model_indices: [43, 0, 0, 0], frame: 0, skinnum: 0, renderfx: 512, origin: Vec3(480.0, 384.0, 473.0), angle: Vec3(0.0, 0.0, 0.0), old_origin: Vec3(480.0, 384.0, 473.0) }), SpawnBaseLine(EntityState { number: 101, model_indices: [43, 0, 0, 0], frame: 0, skinnum: 0, renderfx: 512, origin: Vec3(440.0, 384.0, 473.0), angle: Vec3(0.0, 0.0, 0.0), old_origin: Vec3(440.0, 384.0, 473.0) }), SpawnBaseLine(EntityState { number: 102, model_indices: [55, 0, 0, 0], frame: 0, skinnum: 0, renderfx: 512, origin: Vec3(176.0, 776.0, 455.0), angle: Vec3(0.0, 0.0, 0.0), old_origin: Vec3(176.0, 776.0, 455.0) }), SpawnBaseLine(EntityState { number: 103, model_indices: [55, 0, 0, 0], frame: 0, skinnum: 0, renderfx: 512, origin: Vec3(176.0, 816.0, 455.0), angle: Vec3(0.0, 0.0, 0.0), old_origin: Vec3(176.0, 816.0, 455.0) }), SpawnBaseLine(EntityState { number: 104, model_indices: [55, 0, 0, 0], frame: 0, skinnum: 0, renderfx: 512, origin: Vec3(144.0, 848.0, 455.0), angle: Vec3(0.0, 0.0, 0.0), old_origin: Vec3(144.0, 848.0, 455.0) }), SpawnBaseLine(EntityState { number: 105, model_indices: [55, 0, 0, 0], frame: 0, skinnum: 0, renderfx: 512, origin: Vec3(160.0, 736.0, 455.0), angle: Vec3(0.0, 0.0, 0.0), old_origin: Vec3(160.0, 736.0, 455.0) }), SpawnBaseLine(EntityState { number: 106, model_indices: [40, 0, 0, 0], frame: 0, skinnum: 0, renderfx: 512, origin: Vec3(368.0, 1048.0, 391.0), angle: Vec3(0.0, 0.0, 0.0), old_origin: Vec3(368.0, 1048.0, 391.0) }), SpawnBaseLine(EntityState { number: 107, model_indices: [40, 0, 0, 0], frame: 0, skinnum: 0, renderfx: 512, origin: Vec3(408.0, 1048.0, 391.0), angle: Vec3(0.0, 0.0, 0.0), old_origin: Vec3(408.0, 1048.0, 391.0) }), SpawnBaseLine(EntityState { number: 108, model_indices: [44, 0, 0, 0], frame: 0, skinnum: 0, renderfx: 512, origin: Vec3(-24.0, 552.0, 607.0), angle: Vec3(0.0, 0.0, 0.0), old_origin: Vec3(-24.0, 552.0, 607.0) }), SpawnBaseLine(EntityState { number: 109, model_indices: [44, 0, 0, 0], frame: 0, skinnum: 0, renderfx: 512, origin: Vec3(-48.0, 592.0, 607.0), angle: Vec3(0.0, 0.0, 0.0), old_origin: Vec3(-48.0, 592.0, 607.0) }), SpawnBaseLine(EntityState { number: 110, model_indices: [44, 0, 0, 0], frame: 0, skinnum: 0, renderfx: 512, origin: Vec3(-88.0, 608.0, 607.0), angle: Vec3(0.0, 0.0, 0.0), old_origin: Vec3(-88.0, 608.0, 607.0) }), SpawnBaseLine(EntityState { number: 111, model_indices: [43, 0, 0, 0], frame: 0, skinnum: 0, renderfx: 512, origin: Vec3(-80.0, 432.0, 655.0), angle: Vec3(0.0, 0.0, 0.0), old_origin: Vec3(-80.0, 432.0, 655.0) }), SpawnBaseLine(EntityState { number: 112, model_indices: [31, 0, 0, 0], frame: 0, skinnum: 0, renderfx: 512, origin: Vec3(-80.0, 296.0, 655.0), angle: Vec3(0.0, 0.0, 0.0), old_origin: Vec3(-80.0, 296.0, 655.0) }), SpawnBaseLine(EntityState { number: 113, model_indices: [44, 0, 0, 0], frame: 0, skinnum: 0, renderfx: 512, origin: Vec3(120.0, -392.0, 459.0), angle: Vec3(0.0, 0.0, 0.0), old_origin: Vec3(120.0, -392.0, 459.0) }), SpawnBaseLine(EntityState { number: 114, model_indices: [44, 0, 0, 0], frame: 0, skinnum: 0, renderfx: 512, origin: Vec3(120.0, -360.0, 459.0), angle: Vec3(0.0, 0.0, 0.0), old_origin: Vec3(120.0, -360.0, 459.0) }), SpawnBaseLine(EntityState { number: 115, model_indices: [44, 0, 0, 0], frame: 0, skinnum: 0, renderfx: 512, origin: Vec3(120.0, -328.0, 459.0), angle: Vec3(0.0, 0.0, 0.0), old_origin: Vec3(120.0, -328.0, 459.0) }), SpawnBaseLine(EntityState { number: 116, model_indices: [44, 0, 0, 0], frame: 0, skinnum: 0, renderfx: 512, origin: Vec3(120.0, -424.0, 459.0), angle: Vec3(0.0, 0.0, 0.0), old_origin: Vec3(120.0, -424.0, 459.0) }), SpawnBaseLine(EntityState { number: 117, model_indices: [25, 0, 0, 0], frame: 0, skinnum: 0, renderfx: 512, origin: Vec3(352.0, -416.0, 459.0), angle: Vec3(0.0, 0.0, 0.0), old_origin: Vec3(352.0, -416.0, 459.0) }), StuffText(\"cmd baselines 22429 118\\n\")]))",
    "32 Ok(ConnectionfulPacket(ConnectionfulPacketHeader { contains_reliable: true, sequence: 14, ack_sequence: false, ack_flag: 14 }, [SpawnBaseLine(EntityState { number: 118, model_indices: [56, 0, 0, 0], frame: 0, skinnum: 0, renderfx: 512, origin: Vec3(240.0, -384.0, 459.0), angle: Vec3(0.0, 0.0, 0.0), old_origin: Vec3(240.0, -384.0, 459.0) }), SpawnBaseLine(EntityState { number: 119, model_indices: [2, 0, 0, 0], frame: 0, skinnum: 0, renderfx: 0, origin: Vec3(0.0, 0.0, -586.0), angle: Vec3(0.0, 0.0, 0.0), old_origin: Vec3(0.0, 0.0, -586.0) }), SpawnBaseLine(EntityState { number: 121, model_indices: [3, 0, 0, 0], frame: 0, skinnum: 0, renderfx: 0, origin: Vec3(0.0, 0.0, -250.0), angle: Vec3(0.0, 0.0, 0.0), old_origin: Vec3(0.0, 0.0, -250.0) }), SpawnBaseLine(EntityState { number: 124, model_indices: [0, 0, 0, 0], frame: 0, skinnum: 0, renderfx: 0, origin: Vec3(0.0, 192.0, 764.0), angle: Vec3(0.0, 0.0, 0.0), old_origin: Vec3(0.0, 192.0, 764.0) }), SpawnBaseLine(EntityState { number: 125, model_indices: [0, 0, 0, 0], frame: 0, skinnum: 0, renderfx: 0, origin: Vec3(-12.0, 576.0, 764.0), angle: Vec3(0.0, 0.0, 0.0), old_origin: Vec3(-12.0, 576.0, 764.0) }), SpawnBaseLine(EntityState { number: 126, model_indices: [0, 0, 0, 0], frame: 0, skinnum: 0, renderfx: 0, origin: Vec3(748.0, 84.0, 1020.0), angle: Vec3(0.0, 0.0, 0.0), old_origin: Vec3(748.0, 84.0, 1020.0) }), SpawnBaseLine(EntityState { number: 127, model_indices: [0, 0, 0, 0], frame: 0, skinnum: 0, renderfx: 0, origin: Vec3(1500.0, 980.0, 420.0), angle: Vec3(0.0, 0.0, 0.0), old_origin: Vec3(1500.0, 980.0, 420.0) }), StuffText(\"precache 22429\\n\")]))",
    "34 Ok(ConnectionfulPacket(ConnectionfulPacketHeader { contains_reliable: true, sequence: 15, ack_sequence: true, ack_flag: 15 }, [ServerConfigString { index: 1313, config: \"Player\\\\male/grunt\" }, Print(\"\\x02Player entered the game\\n\"), ServerFrame(ServerFrame { frame_number: 220, last_frame: -1, suppress_count: 0, area_bits_length: 1, area_bits: [2] }), PlayerInfo(PlayerInfo), PacketEntities([EntityState { number: 2, model_indices: [255, 255, 0, 0], frame: 64, skinnum: 257, renderfx: 0, origin: Vec3(1888.0, 464.0, 930.0), angle: Vec3(0.0, 270.0, 0.0), old_origin: Vec3(1888.0, 464.0, 930.0) }, EntityState { number: 26, model_indices: [0, 0, 0, 0], frame: 0, skinnum: 0, renderfx: 0, origin: Vec3(0.0, 0.0, 0.0), angle: Vec3(0.0, 0.0, 0.0), old_origin: Vec3(1192.0, -24.0, 911.0) }, EntityState { number: 27, model_indices: [0, 0, 0, 0], frame: 0, skinnum: 0, renderfx: 0, origin: Vec3(0.0, 0.0, 0.0), angle: Vec3(0.0, 0.0, 0.0), old_origin: Vec3(1232.0, -24.0, 911.0) }, EntityState { number: 33, model_indices: [0, 0, 0, 0], frame: 0, skinnum: 0, renderfx: 0, origin: Vec3(0.0, 0.0, 0.0), angle: Vec3(0.0, 0.0, 0.0), old_origin: Vec3(1672.0, 488.0, 527.0) }, EntityState { number: 44, model_indices: [0, 0, 0, 0], frame: 0, skinnum: 0, renderfx: 0, origin: Vec3(0.0, 0.0, 0.0), angle: Vec3(0.0, 0.0, 0.0), old_origin: Vec3(1888.0, 464.0, 920.0) }, EntityState { number: 46, model_indices: [0, 0, 0, 0], frame: 0, skinnum: 0, renderfx: 0, origin: Vec3(0.0, 0.0, 0.0), angle: Vec3(0.0, 0.0, 0.0), old_origin: Vec3(1512.0, -24.0, 536.0) }, EntityState { number: 48, model_indices: [0, 0, 0, 0], frame: 0, skinnum: 0, renderfx: 0, origin: Vec3(0.0, 0.0, 0.0), angle: Vec3(0.0, 0.0, 0.0), old_origin: Vec3(1512.0, 136.0, 527.0) }, EntityState { number: 49, model_indices: [0, 0, 0, 0], frame: 0, skinnum: 0, renderfx: 0, origin: Vec3(0.0, 0.0, 0.0), angle: Vec3(0.0, 0.0, 0.0), old_origin: Vec3(1512.0, 88.0, 527.0) }, EntityState { number: 66, model_indices: [0, 0, 0, 0], frame: 0, skinnum: 0, renderfx: 0, origin: Vec3(0.0, 0.0, 0.0), angle: Vec3(0.0, 0.0, 0.0), old_origin: Vec3(1824.0, 648.0, 911.0) }, EntityState { number: 67, model_indices: [0, 0, 0, 0], frame: 0, skinnum: 0, renderfx: 0, origin: Vec3(0.0, 0.0, 0.0), angle: Vec3(0.0, 0.0, 0.0), old_origin: Vec3(1824.0, 688.0, 911.0) }, EntityState { number: 68, model_indices: [0, 0, 0, 0], frame: 0, skinnum: 0, renderfx: 0, origin: Vec3(0.0, 0.0, 0.0), angle: Vec3(0.0, 0.0, 0.0), old_origin: Vec3(1824.0, 728.0, 911.0) }, EntityState { number: 69, model_indices: [0, 0, 0, 0], frame: 0, skinnum: 0, renderfx: 0, origin: Vec3(0.0, 0.0, 0.0), angle: Vec3(0.0, 0.0, 0.0), old_origin: Vec3(1824.0, 608.0, 911.0) }, EntityState { number: 70, model_indices: [0, 0, 0, 0], frame: 0, skinnum: 0, renderfx: 0, origin: Vec3(0.0, 0.0, 0.0), angle: Vec3(0.0, 0.0, 0.0), old_origin: Vec3(1888.0, 720.0, 1039.0) }, EntityState { number: 71, model_indices: [0, 0, 0, 0], frame: 0, skinnum: 0, renderfx: 0, origin: Vec3(0.0, 0.0, 0.0), angle: Vec3(0.0, 0.0, 0.0), old_origin: Vec3(1888.0, 680.0, 1039.0) }, EntityState { number: 82, model_indices: [0, 0, 0, 0], frame: 0, skinnum: 0, renderfx: 0, origin: Vec3(0.0, 0.0, 0.0), angle: Vec3(0.0, 0.0, 0.0), old_origin: Vec3(1576.0, 936.0, 1039.0) }, EntityState { number: 92, model_indices: [0, 0, 0, 0], frame: 0, skinnum: 0, renderfx: 0, origin: Vec3(0.0, 0.0, 0.0), angle: Vec3(0.0, 0.0, 0.0), old_origin: Vec3(1888.0, 1128.0, 1039.0) }, EntityState { number: 93, model_indices: [0, 0, 0, 0], frame: 0, skinnum: 0, renderfx: 0, origin: Vec3(0.0, 0.0, 0.0), angle: Vec3(0.0, 0.0, 0.0), old_origin: Vec3(1888.0, 1184.0, 1039.0) }, EntityState { number: 94, model_indices: [0, 0, 0, 0], frame: 0, skinnum: 0, renderfx: 0, origin: Vec3(0.0, 0.0, 0.0), angle: Vec3(0.0, 0.0, 0.0), old_origin: Vec3(1848.0, -44.0, 911.0) }, EntityState { number: 95, model_indices: [0, 0, 0, 0], frame: 0, skinnum: 0, renderfx: 0, origin: Vec3(0.0, 0.0, 0.0), angle: Vec3(0.0, 0.0, 0.0), old_origin: Vec3(1816.0, -80.0, 911.0) }]), MuzzleFlash { entity: 2, f_type: 9 }]))",
    "39 Ok(ConnectionfulPacket(ConnectionfulPacketHeader { contains_reliable: false, sequence: 16, ack_sequence: true, ack_flag: 19 }, [ServerFrame(ServerFrame { frame_number: 221, last_frame: 220, suppress_count: 0, area_bits_length: 1, area_bits: [2] }), PlayerInfo(PlayerInfo), PacketEntities([EntityState { number: 2, model_indices: [0, 0, 0, 0], frame: 65, skinnum: 0, renderfx: 0, origin: Vec3(0.0, 0.0, 928.125), angle: Vec3(0.0, 270.0, 0.0), old_origin: Vec3(1888.0, 464.0, 928.125) }])]))",
    "45 Ok(ConnectionfulPacket(ConnectionfulPacketHeader { contains_reliable: false, sequence: 17, ack_sequence: true, ack_flag: 24 }, [ServerFrame(ServerFrame { frame_number: 222, last_frame: 221, suppress_count: 0, area_bits_length: 1, area_bits: [2] }), PlayerInfo(PlayerInfo), PacketEntities([EntityState { number: 2, model_indices: [0, 0, 0, 0], frame: 0, skinnum: 0, renderfx: 0, origin: Vec3(0.0, 0.0, 0.0), angle: Vec3(0.0, 0.0, 0.0), old_origin: Vec3(1888.0, 464.0, 928.125) }])]))",
    "52 Ok(ConnectionfulPacket(ConnectionfulPacketHeader { contains_reliable: false, sequence: 18, ack_sequence: true, ack_flag: 30 }, [ServerFrame(ServerFrame { frame_number: 223, last_frame: 222, suppress_count: 0, area_bits_length: 1, area_bits: [2] }), PlayerInfo(PlayerInfo), PacketEntities([EntityState { number: 2, model_indices: [0, 0, 0, 0], frame: 1, skinnum: 0, renderfx: 0, origin: Vec3(0.0, 0.0, 0.0), angle: Vec3(0.0, 0.0, 0.0), old_origin: Vec3(1888.0, 464.0, 928.125) }])]))",
    "59 Ok(ConnectionfulPacket(ConnectionfulPacketHeader { contains_reliable: false, sequence: 19, ack_sequence: true, ack_flag: 36 }, [ServerFrame(ServerFrame { frame_number: 224, last_frame: 223, suppress_count: 0, area_bits_length: 1, area_bits: [2] }), PlayerInfo(PlayerInfo), PacketEntities([EntityState { number: 2, model_indices: [0, 0, 0, 0], frame: 2, skinnum: 0, renderfx: 0, origin: Vec3(0.0, 0.0, 0.0), angle: Vec3(0.0, 0.0, 0.0), old_origin: Vec3(1888.0, 464.0, 928.125) }])]))",
    "66 Ok(ConnectionfulPacket(ConnectionfulPacketHeader { contains_reliable: false, sequence: 20, ack_sequence: true, ack_flag: 42 }, [ServerFrame(ServerFrame { frame_number: 225, last_frame: 224, suppress_count: 0, area_bits_length: 1, area_bits: [2] }), PlayerInfo(PlayerInfo), PacketEntities([EntityState { number: 2, model_indices: [0, 0, 0, 0], frame: 3, skinnum: 0, renderfx: 0, origin: Vec3(0.0, 0.0, 0.0), angle: Vec3(0.0, 0.0, 0.0), old_origin: Vec3(1888.0, 464.0, 928.125) }])]))",
    "73 Ok(ConnectionfulPacket(ConnectionfulPacketHeader { contains_reliable: false, sequence: 21, ack_sequence: true, ack_flag: 48 }, [ServerFrame(ServerFrame { frame_number: 226, last_frame: 225, suppress_count: 0, area_bits_length: 1, area_bits: [2] }), PlayerInfo(PlayerInfo), PacketEntities([EntityState { number: 2, model_indices: [0, 0, 0, 0], frame: 4, skinnum: 0, renderfx: 0, origin: Vec3(0.0, 0.0, 0.0), angle: Vec3(0.0, 0.0, 0.0), old_origin: Vec3(1888.0, 464.0, 928.125) }])]))",
    "80 Ok(ConnectionfulPacket(ConnectionfulPacketHeader { contains_reliable: false, sequence: 22, ack_sequence: true, ack_flag: 54 }, [ServerFrame(ServerFrame { frame_number: 227, last_frame: 226, suppress_count: 0, area_bits_length: 1, area_bits: [2] }), PlayerInfo(PlayerInfo), PacketEntities([EntityState { number: 2, model_indices: [0, 0, 0, 0], frame: 5, skinnum: 0, renderfx: 0, origin: Vec3(0.0, 0.0, 0.0), angle: Vec3(0.0, 0.0, 0.0), old_origin: Vec3(1888.0, 464.0, 928.125) }])]))",
    "87 Ok(ConnectionfulPacket(ConnectionfulPacketHeader { contains_reliable: false, sequence: 23, ack_sequence: true, ack_flag: 60 }, [ServerFrame(ServerFrame { frame_number: 228, last_frame: 227, suppress_count: 0, area_bits_length: 1, area_bits: [2] }), PlayerInfo(PlayerInfo), PacketEntities([EntityState { number: 2, model_indices: [0, 0, 0, 0], frame: 6, skinnum: 0, renderfx: 0, origin: Vec3(0.0, 0.0, 0.0), angle: Vec3(0.0, 0.0, 0.0), old_origin: Vec3(1888.0, 464.0, 928.125) }])]))",
    "95 Ok(ConnectionfulPacket(ConnectionfulPacketHeader { contains_reliable: false, sequence: 24, ack_sequence: true, ack_flag: 67 }, [ServerFrame(ServerFrame { frame_number: 229, last_frame: 228, suppress_count: 0, area_bits_length: 1, area_bits: [2] }), PlayerInfo(PlayerInfo), PacketEntities([EntityState { number: 2, model_indices: [0, 0, 0, 0], frame: 7, skinnum: 0, renderfx: 0, origin: Vec3(0.0, 0.0, 0.0), angle: Vec3(0.0, 0.0, 0.0), old_origin: Vec3(1888.0, 464.0, 928.125) }])]))",
    "101 Ok(ConnectionfulPacket(ConnectionfulPacketHeader { contains_reliable: false, sequence: 25, ack_sequence: true, ack_flag: 72 }, [ServerFrame(ServerFrame { frame_number: 230, last_frame: 229, suppress_count: 0, area_bits_length: 1, area_bits: [2] }), PlayerInfo(PlayerInfo), PacketEntities([EntityState { number: 2, model_indices: [0, 0, 0, 0], frame: 8, skinnum: 0, renderfx: 0, origin: Vec3(0.0, 0.0, 0.0), angle: Vec3(0.0, 0.0, 0.0), old_origin: Vec3(1888.0, 464.0, 928.125) }])]))",
    "109 Ok(ConnectionfulPacket(ConnectionfulPacketHeader { contains_reliable: false, sequence: 26, ack_sequence: true, ack_flag: 79 }, [ServerFrame(ServerFrame { frame_number: 231, last_frame: 230, suppress_count: 0, area_bits_length: 1, area_bits: [2] }), PlayerInfo(PlayerInfo), PacketEntities([EntityState { number: 2, model_indices: [0, 0, 0, 0], frame: 40, skinnum: 0, renderfx: 0, origin: Vec3(0.0, 463.375, 0.0), angle: Vec3(0.0, 0.0, 0.0), old_origin: Vec3(1888.0, 463.375, 928.125) }])]))",
    "115 Ok(ConnectionfulPacket(ConnectionfulPacketHeader { contains_reliable: false, sequence: 27, ack_sequence: true, ack_flag: 84 }, [ServerFrame(ServerFrame { frame_number: 232, last_frame: 231, suppress_count: 0, area_bits_length: 1, area_bits: [2] }), PlayerInfo(PlayerInfo), PacketEntities([EntityState { number: 2, model_indices: [0, 0, 0, 0], frame: 41, skinnum: 0, renderfx: 0, origin: Vec3(1887.625, 462.625, 0.0), angle: Vec3(0.0, 268.59375, 0.0), old_origin: Vec3(1887.625, 462.625, 928.125) }])]))",
    "122 Ok(ConnectionfulPacket(ConnectionfulPacketHeader { contains_reliable: false, sequence: 28, ack_sequence: true, ack_flag: 90 }, [ServerFrame(ServerFrame { frame_number: 233, last_frame: 232, suppress_count: 0, area_bits_length: 1, area_bits: [2] }), PlayerInfo(PlayerInfo), PacketEntities([EntityState { number: 2, model_indices: [0, 0, 0, 0], frame: 42, skinnum: 0, renderfx: 0, origin: Vec3(1886.5, 458.0, 0.0), angle: Vec3(0.0, 253.125, 0.0), old_origin: Vec3(1886.5, 458.0, 928.125) }])]))",
    "129 Ok(ConnectionfulPacket(ConnectionfulPacketHeader { contains_reliable: true, sequence: 29, ack_sequence: true, ack_flag: 96 }, [ServerConfigString { index: 90, config: \"models/objects/laser/tris.md2\" }, ServerFrame(ServerFrame { frame_number: 234, last_frame: 233, suppress_count: 0, area_bits_length: 1, area_bits: [2] }), PlayerInfo(PlayerInfo), PacketEntities([EntityState { number: 2, model_indices: [0, 0, 0, 0], frame: 46, skinnum: 0, renderfx: 0, origin: Vec3(1883.125, 449.0, 0.0), angle: Vec3(0.0, 239.0625, 0.0), old_origin: Vec3(1883.125, 449.0, 928.125) }, EntityState { number: 128, model_indices: [58, 0, 0, 0], frame: 0, skinnum: 0, renderfx: 0, origin: Vec3(1813.875, 347.5, 942.125), angle: Vec3(0.0, 239.0625, 0.0), old_origin: Vec3(1864.625, 433.75, 942.125) }]), MuzzleFlash { entity: 2, f_type: 0 }]))",
    "137 Ok(ConnectionfulPacket(ConnectionfulPacketHeader { contains_reliable: false, sequence: 30, ack_sequence: true, ack_flag: 103 }, [ServerFrame(ServerFrame { frame_number: 235, last_frame: 234, suppress_count: 0, area_bits_length: 1, area_bits: [2] }), PlayerInfo(PlayerInfo), PacketEntities([EntityState { number: 2, model_indices: [0, 0, 0, 0], frame: 47, skinnum: 0, renderfx: 0, origin: Vec3(1880.125, 442.125, 0.0), angle: Vec3(0.0, 233.4375, 0.0), old_origin: Vec3(1880.125, 442.125, 928.125) }, EntityState { number: 128, model_indices: [0, 0, 0, 0], frame: 0, skinnum: 0, renderfx: 0, origin: Vec3(1763.125, 261.375, 0.0), angle: Vec3(0.0, 0.0, 0.0), old_origin: Vec3(0.0, 0.0, 0.0) }])]))",
    "143 Ok(ConnectionfulPacket(ConnectionfulPacketHeader { contains_reliable: false, sequence: 31, ack_sequence: true, ack_flag: 108 }, [ServerFrame(ServerFrame { frame_number: 236, last_frame: 235, suppress_count: 0, area_bits_length: 1, area_bits: [2] }), PlayerInfo(PlayerInfo), PacketEntities([EntityState { number: 2, model_indices: [0, 0, 0, 0], frame: 48, skinnum: 0, renderfx: 0, origin: Vec3(1878.75, 440.125, 0.0), angle: Vec3(0.0, 0.0, 0.0), old_origin: Vec3(1878.75, 440.125, 928.125) }, EntityState { number: 34, model_indices: [0, 0, 0, 0], frame: 0, skinnum: 0, renderfx: 0, origin: Vec3(0.0, 0.0, 0.0), angle: Vec3(0.0, 0.0, 0.0), old_origin: Vec3(1720.0, 488.0, 527.0) }, EntityState { number: 47, model_indices: [0, 0, 0, 0], frame: 0, skinnum: 0, renderfx: 0, origin: Vec3(0.0, 0.0, 0.0), angle: Vec3(0.0, 0.0, 0.0), old_origin: Vec3(1688.0, 96.0, 527.0) }, EntityState { number: 128, model_indices: [0, 0, 0, 0], frame: 0, skinnum: 0, renderfx: 0, origin: Vec3(1712.375, 175.125, 0.0), angle: Vec3(0.0, 0.0, 0.0), old_origin: Vec3(0.0, 0.0, 0.0) }])]))",
    "150 Ok(ConnectionfulPacket(ConnectionfulPacketHeader { contains_reliable: false, sequence: 32, ack_sequence: true, ack_flag: 114 }, [ServerFrame(ServerFrame { frame_number: 237, last_frame: 236, suppress_count: 0, area_bits_length: 1, area_bits: [2] }), PlayerInfo(PlayerInfo), PacketEntities([EntityState { number: 2, model_indices: [0, 0, 0, 0], frame: 49, skinnum: 0, renderfx: 0, origin: Vec3(0.0, 0.0, 0.0), angle: Vec3(0.0, 0.0, 0.0), old_origin: Vec3(1878.75, 440.125, 928.125) }, EntityState { number: 128, model_indices: [0, 0, 0, 0], frame: 0, skinnum: 0, renderfx: 0, origin: Vec3(1661.625, 89.0, 0.0), angle: Vec3(0.0, 0.0, 0.0), old_origin: Vec3(0.0, 0.0, 0.0) }])]))",
    "158 Ok(ConnectionfulPacket(ConnectionfulPacketHeader { contains_reliable: false, sequence: 33, ack_sequence: true, ack_flag: 121 }, [ServerFrame(ServerFrame { frame_number: 238, last_frame: 237, suppress_count: 0, area_bits_length: 1, area_bits: [2] }), PlayerInfo(PlayerInfo), PacketEntities([EntityState { number: 2, model_indices: [0, 0, 0, 0], frame: 50, skinnum: 0, renderfx: 0, origin: Vec3(0.0, 0.0, 0.0), angle: Vec3(0.0, 0.0, 0.0), old_origin: Vec3(1878.75, 440.125, 928.125) }, EntityState { number: 128, model_indices: [0, 0, 0, 0], frame: 0, skinnum: 0, renderfx: 0, origin: Vec3(1611.0, 2.875, 0.0), angle: Vec3(0.0, 0.0, 0.0), old_origin: Vec3(0.0, 0.0, 0.0) }])]))",
    "165 Ok(ConnectionfulPacket(ConnectionfulPacketHeader { contains_reliable: false, sequence: 34, ack_sequence: true, ack_flag: 127 }, [ServerFrame(ServerFrame { frame_number: 239, last_frame: 238, suppress_count: 0, area_bits_length: 1, area_bits: [2] }), PlayerInfo(PlayerInfo), PacketEntities([EntityState { number: 2, model_indices: [0, 0, 0, 0], frame: 51, skinnum: 0, renderfx: 0, origin: Vec3(0.0, 0.0, 0.0), angle: Vec3(0.0, 0.0, 0.0), old_origin: Vec3(1878.75, 440.125, 928.125) }, EntityState { number: 128, model_indices: [0, 0, 0, 0], frame: 0, skinnum: 0, renderfx: 0, origin: Vec3(1560.25, -83.25, 0.0), angle: Vec3(0.0, 0.0, 0.0), old_origin: Vec3(0.0, 0.0, 0.0) }])]))",
    "172 Ok(ConnectionfulPacket(ConnectionfulPacketHeader { contains_reliable: false, sequence: 35, ack_sequence: true, ack_flag: 133 }, [ServerFrame(ServerFrame { frame_number: 240, last_frame: 239, suppress_count: 0, area_bits_length: 1, area_bits: [2] }), PlayerInfo(PlayerInfo), PacketEntities([EntityState { number: 2, model_indices: [0, 0, 0, 0], frame: 52, skinnum: 0, renderfx: 0, origin: Vec3(0.0, 0.0, 0.0), angle: Vec3(0.0, 0.0, 0.0), old_origin: Vec3(1878.75, 440.125, 928.125) }, EntityState { number: 128, model_indices: [0, 0, 0, 0], frame: 0, skinnum: 0, renderfx: 0, origin: Vec3(0.0, 0.0, 0.0), angle: Vec3(0.0, 0.0, 0.0), old_origin: Vec3(0.0, 0.0, 0.0) }]), TempEntity(TempEntity)]))",
    "179 Ok(ConnectionfulPacket(ConnectionfulPacketHeader { contains_reliable: false, sequence: 36, ack_sequence: true, ack_flag: 139 }, [ServerFrame(ServerFrame { frame_number: 241, last_frame: 240, suppress_count: 0, area_bits_length: 1, area_bits: [2] }), PlayerInfo(PlayerInfo), PacketEntities([EntityState { number: 2, model_indices: [0, 0, 0, 0], frame: 53, skinnum: 0, renderfx: 0, origin: Vec3(0.0, 0.0, 946.875), angle: Vec3(0.0, 0.0, 0.0), old_origin: Vec3(1878.75, 440.125, 946.875) }]), Sound(Sound)]))",
    "186 Ok(ConnectionfulPacket(ConnectionfulPacketHeader { contains_reliable: false, sequence: 37, ack_sequence: true, ack_flag: 145 }, [ServerFrame(ServerFrame { frame_number: 242, last_frame: 241, suppress_count: 0, area_bits_length: 1, area_bits: [2] }), PlayerInfo(PlayerInfo), PacketEntities([EntityState { number: 2, model_indices: [0, 0, 0, 0], frame: 66, skinnum: 0, renderfx: 0, origin: Vec3(0.0, 0.0, 962.0), angle: Vec3(0.0, 0.0, 0.0), old_origin: Vec3(1878.75, 440.125, 962.0) }])]))",
    "193 Ok(ConnectionfulPacket(ConnectionfulPacketHeader { contains_reliable: false, sequence: 38, ack_sequence: true, ack_flag: 151 }, [ServerFrame(ServerFrame { frame_number: 243, last_frame: 242, suppress_count: 0, area_bits_length: 1, area_bits: [2] }), PlayerInfo(PlayerInfo), PacketEntities([EntityState { number: 2, model_indices: [0, 0, 0, 0], frame: 67, skinnum: 0, renderfx: 0, origin: Vec3(0.0, 0.0, 969.25), angle: Vec3(0.0, 0.0, 0.0), old_origin: Vec3(1878.75, 440.125, 969.25) }])]))",
    "200 Ok(ConnectionfulPacket(ConnectionfulPacketHeader { contains_reliable: false, sequence: 39, ack_sequence: true, ack_flag: 157 }, [ServerFrame(ServerFrame { frame_number: 244, last_frame: 243, suppress_count: 0, area_bits_length: 1, area_bits: [2] }), PlayerInfo(PlayerInfo), PacketEntities([EntityState { number: 2, model_indices: [0, 0, 0, 0], frame: 0, skinnum: 0, renderfx: 0, origin: Vec3(0.0, 0.0, 968.5), angle: Vec3(0.0, 0.0, 0.0), old_origin: Vec3(1878.75, 440.125, 968.5) }])]))",
    "207 Ok(ConnectionfulPacket(ConnectionfulPacketHeader { contains_reliable: false, sequence: 40, ack_sequence: true, ack_flag: 163 }, [ServerFrame(ServerFrame { frame_number: 245, last_frame: 244, suppress_count: 0, area_bits_length: 1, area_bits: [2] }), PlayerInfo(PlayerInfo), PacketEntities([EntityState { number: 2, model_indices: [0, 0, 0, 0], frame: 0, skinnum: 0, renderfx: 0, origin: Vec3(0.0, 0.0, 959.75), angle: Vec3(0.0, 0.0, 0.0), old_origin: Vec3(1878.75, 440.125, 959.75) }])]))",
    "214 Ok(ConnectionfulPacket(ConnectionfulPacketHeader { contains_reliable: false, sequence: 41, ack_sequence: true, ack_flag: 169 }, [ServerFrame(ServerFrame { frame_number: 246, last_frame: 245, suppress_count: 0, area_bits_length: 1, area_bits: [2] }), PlayerInfo(PlayerInfo), PacketEntities([EntityState { number: 2, model_indices: [0, 0, 0, 0], frame: 0, skinnum: 0, renderfx: 0, origin: Vec3(0.0, 0.0, 943.0), angle: Vec3(0.0, 0.0, 0.0), old_origin: Vec3(1878.75, 440.125, 943.0) }])]))",
    "221 Ok(ConnectionfulPacket(ConnectionfulPacketHeader { contains_reliable: false, sequence: 42, ack_sequence: true, ack_flag: 175 }, [ServerFrame(ServerFrame { frame_number: 247, last_frame: 246, suppress_count: 0, area_bits_length: 1, area_bits: [2] }), PlayerInfo(PlayerInfo), PacketEntities([EntityState { number: 2, model_indices: [0, 0, 0, 0], frame: 68, skinnum: 0, renderfx: 0, origin: Vec3(0.0, 0.0, 928.125), angle: Vec3(0.0, 0.0, 0.0), old_origin: Vec3(1878.75, 440.125, 928.125) }])]))",
    "228 Ok(ConnectionfulPacket(ConnectionfulPacketHeader { contains_reliable: false, sequence: 43, ack_sequence: true, ack_flag: 181 }, [ServerFrame(ServerFrame { frame_number: 248, last_frame: 247, suppress_count: 0, area_bits_length: 1, area_bits: [2] }), PlayerInfo(PlayerInfo), PacketEntities([EntityState { number: 2, model_indices: [0, 0, 0, 0], frame: 69, skinnum: 0, renderfx: 0, origin: Vec3(0.0, 0.0, 0.0), angle: Vec3(0.0, 0.0, 0.0), old_origin: Vec3(1878.75, 440.125, 928.125) }])]))",
    "235 Ok(ConnectionfulPacket(ConnectionfulPacketHeader { contains_reliable: false, sequence: 44, ack_sequence: true, ack_flag: 187 }, [ServerFrame(ServerFrame { frame_number: 249, last_frame: 248, suppress_count: 0, area_bits_length: 1, area_bits: [2] }), PlayerInfo(PlayerInfo), PacketEntities([EntityState { number: 2, model_indices: [0, 0, 0, 0], frame: 70, skinnum: 0, renderfx: 0, origin: Vec3(0.0, 0.0, 0.0), angle: Vec3(0.0, 0.0, 0.0), old_origin: Vec3(1878.75, 440.125, 928.125) }])]))",
    "242 Ok(ConnectionfulPacket(ConnectionfulPacketHeader { contains_reliable: false, sequence: 45, ack_sequence: true, ack_flag: 193 }, [ServerFrame(ServerFrame { frame_number: 250, last_frame: 249, suppress_count: 0, area_bits_length: 1, area_bits: [2] }), PlayerInfo(PlayerInfo), PacketEntities([EntityState { number: 2, model_indices: [0, 0, 0, 0], frame: 71, skinnum: 0, renderfx: 0, origin: Vec3(0.0, 0.0, 0.0), angle: Vec3(0.0, 0.0, 0.0), old_origin: Vec3(1878.75, 440.125, 928.125) }])]))",
    "249 Ok(ConnectionfulPacket(ConnectionfulPacketHeader { contains_reliable: false, sequence: 46, ack_sequence: true, ack_flag: 199 }, [ServerFrame(ServerFrame { frame_number: 251, last_frame: 250, suppress_count: 0, area_bits_length: 1, area_bits: [2] }), PlayerInfo(PlayerInfo), PacketEntities([EntityState { number: 2, model_indices: [0, 0, 0, 0], frame: 0, skinnum: 0, renderfx: 0, origin: Vec3(0.0, 0.0, 0.0), angle: Vec3(0.0, 0.0, 0.0), old_origin: Vec3(1878.75, 440.125, 928.125) }])]))",
    "256 Ok(ConnectionfulPacket(ConnectionfulPacketHeader { contains_reliable: false, sequence: 47, ack_sequence: true, ack_flag: 205 }, [ServerFrame(ServerFrame { frame_number: 252, last_frame: 251, suppress_count: 0, area_bits_length: 1, area_bits: [2] }), PlayerInfo(PlayerInfo), PacketEntities([EntityState { number: 2, model_indices: [0, 0, 0, 0], frame: 1, skinnum: 0, renderfx: 0, origin: Vec3(0.0, 0.0, 0.0), angle: Vec3(0.0, 0.0, 0.0), old_origin: Vec3(1878.75, 440.125, 928.125) }])]))",
    "263 Ok(ConnectionfulPacket(ConnectionfulPacketHeader { contains_reliable: false, sequence: 48, ack_sequence: true, ack_flag: 211 }, [ServerFrame(ServerFrame { frame_number: 253, last_frame: 252, suppress_count: 0, area_bits_length: 1, area_bits: [2] }), PlayerInfo(PlayerInfo), PacketEntities([EntityState { number: 2, model_indices: [0, 0, 0, 0], frame: 2, skinnum: 0, renderfx: 0, origin: Vec3(0.0, 0.0, 0.0), angle: Vec3(0.0, 0.0, 0.0), old_origin: Vec3(1878.75, 440.125, 928.125) }])]))",
    "270 Ok(ConnectionfulPacket(ConnectionfulPacketHeader { contains_reliable: false, sequence: 49, ack_sequence: true, ack_flag: 217 }, [ServerFrame(ServerFrame { frame_number: 254, last_frame: 253, suppress_count: 0, area_bits_length: 1, area_bits: [2] }), PlayerInfo(PlayerInfo), PacketEntities([EntityState { number: 2, model_indices: [0, 0, 0, 0], frame: 3, skinnum: 0, renderfx: 0, origin: Vec3(0.0, 0.0, 0.0), angle: Vec3(0.0, 0.0, 0.0), old_origin: Vec3(1878.75, 440.125, 928.125) }])]))",
    "277 Ok(ConnectionfulPacket(ConnectionfulPacketHeader { contains_reliable: false, sequence: 50, ack_sequence: true, ack_flag: 223 }, [ServerFrame(ServerFrame { frame_number: 255, last_frame: 254, suppress_count: 0, area_bits_length: 1, area_bits: [2] }), PlayerInfo(PlayerInfo), PacketEntities([EntityState { number: 2, model_indices: [0, 0, 0, 0], frame: 4, skinnum: 0, renderfx: 0, origin: Vec3(0.0, 0.0, 0.0), angle: Vec3(0.0, 0.0, 0.0), old_origin: Vec3(1878.75, 440.125, 928.125) }])]))",
    "284 Ok(ConnectionfulPacket(ConnectionfulPacketHeader { contains_reliable: false, sequence: 51, ack_sequence: true, ack_flag: 229 }, [ServerFrame(ServerFrame { frame_number: 256, last_frame: 255, suppress_count: 0, area_bits_length: 1, area_bits: [2] }), PlayerInfo(PlayerInfo), PacketEntities([EntityState { number: 2, model_indices: [0, 0, 0, 0], frame: 5, skinnum: 0, renderfx: 0, origin: Vec3(0.0, 0.0, 0.0), angle: Vec3(0.0, 0.0, 0.0), old_origin: Vec3(1878.75, 440.125, 928.125) }])]))",
    "291 Ok(ConnectionfulPacket(ConnectionfulPacketHeader { contains_reliable: true, sequence: 52, ack_sequence: false, ack_flag: 235 }, [Print(\"\\x03Player: asdfg \\n\"), ServerFrame(ServerFrame { frame_number: 257, last_frame: 256, suppress_count: 0, area_bits_length: 1, area_bits: [2] }), PlayerInfo(PlayerInfo), PacketEntities([EntityState { number: 2, model_indices: [0, 0, 0, 0], frame: 6, skinnum: 0, renderfx: 0, origin: Vec3(0.0, 0.0, 0.0), angle: Vec3(0.0, 0.0, 0.0), old_origin: Vec3(1878.75, 440.125, 928.125) }])]))",
    "298 Ok(ConnectionfulPacket(ConnectionfulPacketHeader { contains_reliable: false, sequence: 53, ack_sequence: false, ack_flag: 241 }, [ServerFrame(ServerFrame { frame_number: 258, last_frame: 257, suppress_count: 0, area_bits_length: 1, area_bits: [2] }), PlayerInfo(PlayerInfo), PacketEntities([EntityState { number: 2, model_indices: [0, 0, 0, 0], frame: 7, skinnum: 0, renderfx: 0, origin: Vec3(0.0, 0.0, 0.0), angle: Vec3(0.0, 0.0, 0.0), old_origin: Vec3(1878.75, 440.125, 928.125) }])]))",
    "305 Ok(ConnectionfulPacket(ConnectionfulPacketHeader { contains_reliable: false, sequence: 54, ack_sequence: false, ack_flag: 247 }, [ServerFrame(ServerFrame { frame_number: 259, last_frame: 258, suppress_count: 0, area_bits_length: 1, area_bits: [2] }), PlayerInfo(PlayerInfo), PacketEntities([EntityState { number: 2, model_indices: [0, 0, 0, 0], frame: 8, skinnum: 0, renderfx: 0, origin: Vec3(0.0, 0.0, 0.0), angle: Vec3(0.0, 0.0, 0.0), old_origin: Vec3(1878.75, 440.125, 928.125) }])]))",
    "311 Ok(ConnectionfulPacket(ConnectionfulPacketHeader { contains_reliable: false, sequence: 55, ack_sequence: false, ack_flag: 252 }, [ServerFrame(ServerFrame { frame_number: 260, last_frame: 259, suppress_count: 0, area_bits_length: 1, area_bits: [2] }), PlayerInfo(PlayerInfo), PacketEntities([EntityState { number: 2, model_indices: [0, 0, 0, 0], frame: 9, skinnum: 0, renderfx: 0, origin: Vec3(0.0, 0.0, 0.0), angle: Vec3(0.0, 0.0, 0.0), old_origin: Vec3(1878.75, 440.125, 928.125) }])]))",
    "319 Ok(ConnectionfulPacket(ConnectionfulPacketHeader { contains_reliable: false, sequence: 56, ack_sequence: false, ack_flag: 259 }, [ServerFrame(ServerFrame { frame_number: 261, last_frame: 260, suppress_count: 0, area_bits_length: 1, area_bits: [2] }), PlayerInfo(PlayerInfo), PacketEntities([EntityState { number: 2, model_indices: [0, 0, 0, 0], frame: 10, skinnum: 0, renderfx: 0, origin: Vec3(0.0, 0.0, 0.0), angle: Vec3(0.0, 0.0, 0.0), old_origin: Vec3(1878.75, 440.125, 928.125) }])]))",
    "326 Ok(ConnectionfulPacket(ConnectionfulPacketHeader { contains_reliable: false, sequence: 57, ack_sequence: false, ack_flag: 265 }, [ServerFrame(ServerFrame { frame_number: 262, last_frame: 261, suppress_count: 0, area_bits_length: 1, area_bits: [2] }), PlayerInfo(PlayerInfo), PacketEntities([EntityState { number: 2, model_indices: [0, 0, 0, 0], frame: 11, skinnum: 0, renderfx: 0, origin: Vec3(0.0, 0.0, 0.0), angle: Vec3(0.0, 0.0, 0.0), old_origin: Vec3(1878.75, 440.125, 928.125) }])]))",
    "333 Ok(ConnectionfulPacket(ConnectionfulPacketHeader { contains_reliable: false, sequence: 58, ack_sequence: false, ack_flag: 271 }, [ServerFrame(ServerFrame { frame_number: 263, last_frame: 262, suppress_count: 0, area_bits_length: 1, area_bits: [2] }), PlayerInfo(PlayerInfo), PacketEntities([EntityState { number: 2, model_indices: [0, 0, 0, 0], frame: 12, skinnum: 0, renderfx: 0, origin: Vec3(0.0, 0.0, 0.0), angle: Vec3(0.0, 0.0, 0.0), old_origin: Vec3(1878.75, 440.125, 928.125) }])]))",
    "340 Ok(ConnectionfulPacket(ConnectionfulPacketHeader { contains_reliable: false, sequence: 59, ack_sequence: false, ack_flag: 277 }, [ServerFrame(ServerFrame { frame_number: 264, last_frame: 263, suppress_count: 0, area_bits_length: 1, area_bits: [2] }), PlayerInfo(PlayerInfo), PacketEntities([EntityState { number: 2, model_indices: [0, 0, 0, 0], frame: 13, skinnum: 0, renderfx: 0, origin: Vec3(0.0, 0.0, 0.0), angle: Vec3(0.0, 0.0, 0.0), old_origin: Vec3(1878.75, 440.125, 928.125) }])]))",
    "347 Ok(ConnectionfulPacket(ConnectionfulPacketHeader { contains_reliable: false, sequence: 60, ack_sequence: false, ack_flag: 283 }, [ServerFrame(ServerFrame { frame_number: 265, last_frame: 264, suppress_count: 0, area_bits_length: 1, area_bits: [2] }), PlayerInfo(PlayerInfo), PacketEntities([EntityState { number: 2, model_indices: [0, 0, 0, 0], frame: 14, skinnum: 0, renderfx: 0, origin: Vec3(0.0, 0.0, 0.0), angle: Vec3(0.0, 0.0, 0.0), old_origin: Vec3(1878.75, 440.125, 928.125) }])]))",
    "354 Ok(ConnectionfulPacket(ConnectionfulPacketHeader { contains_reliable: false, sequence: 61, ack_sequence: false, ack_flag: 289 }, [ServerFrame(ServerFrame { frame_number: 266, last_frame: 265, suppress_count: 0, area_bits_length: 1, area_bits: [2] }), PlayerInfo(PlayerInfo), PacketEntities([EntityState { number: 2, model_indices: [0, 0, 0, 0], frame: 15, skinnum: 0, renderfx: 0, origin: Vec3(0.0, 0.0, 0.0), angle: Vec3(0.0, 0.0, 0.0), old_origin: Vec3(1878.75, 440.125, 928.125) }])]))",
    "361 Ok(ConnectionfulPacket(ConnectionfulPacketHeader { contains_reliable: false, sequence: 62, ack_sequence: false, ack_flag: 295 }, [ServerFrame(ServerFrame { frame_number: 267, last_frame: 266, suppress_count: 0, area_bits_length: 1, area_bits: [2] }), PlayerInfo(PlayerInfo), PacketEntities([EntityState { number: 2, model_indices: [0, 0, 0, 0], frame: 16, skinnum: 0, renderfx: 0, origin: Vec3(0.0, 0.0, 0.0), angle: Vec3(0.0, 0.0, 0.0), old_origin: Vec3(1878.75, 440.125, 928.125) }])]))",
    "368 Ok(ConnectionfulPacket(ConnectionfulPacketHeader { contains_reliable: false, sequence: 63, ack_sequence: false, ack_flag: 301 }, [ServerFrame(ServerFrame { frame_number: 268, last_frame: 267, suppress_count: 0, area_bits_length: 1, area_bits: [2] }), PlayerInfo(PlayerInfo), PacketEntities([EntityState { number: 2, model_indices: [0, 0, 0, 0], frame: 17, skinnum: 0, renderfx: 0, origin: Vec3(0.0, 0.0, 0.0), angle: Vec3(0.0, 0.0, 0.0), old_origin: Vec3(1878.75, 440.125, 928.125) }])]))",
    "377 Ok(ConnectionfulPacket(ConnectionfulPacketHeader { contains_reliable: true, sequence: 64, ack_sequence: false, ack_flag: 307 }, [Disconnect, Print(\"\\x02Player disconnected\\n\"), ServerConfigString { index: 1313, config: \"\" }]))",
    "378 Ok(ConnectionfulPacket(ConnectionfulPacketHeader { contains_reliable: false, sequence: 65, ack_sequence: false, ack_flag: 307 }, []))",
]
